<use xlink:href="#elevator"  width="12" height="19.92" x="-6" y="-9.96" transform="matrix(1 0 0 -1 260.5 191)" overflow="visible"/>

        <use xlink:href="#elevator"  width="12" height="19.92" x="-6" y="-9.96" transform="matrix(1 0 0 -1 433.5 191.5)" overflow="visible"/>

        <use xlink:href="#elevator"  width="12" height="19.92" x="-6" y="-9.96" transform="matrix(1 0 0 -1 605 191)" overflow="visible"/>

        <use xlink:href="#elevator"  width="12" height="19.92" x="-6" y="-9.96" transform="matrix(1 0 0 -1 782.5 191)" overflow="visible"/>

        <use xlink:href="#stairs_1_"  width="19" height="15.34" x="-9.5" y="-7.67" transform="matrix(0.8112 0 0 -0.8112 263.4766 228.4995)" overflow="visible"/>

        <use xlink:href="#stairs_1_"  width="19" height="15.34" x="-9.5" y="-7.67" transform="matrix(0.8112 0 0 -0.8112 435.7607 228.2227)" overflow="visible"/>

        <use xlink:href="#stairs_1_"  width="19" height="15.34" x="-9.5" y="-7.67" transform="matrix(0.8112 0 0 -0.8112 608.0313 228.2227)" overflow="visible"/>

        <use xlink:href="#stairs_1_"  width="19" height="15.34" x="-9.5" y="-7.67" transform="matrix(0.8112 0 0 -0.8112 783.666 228.2227)" overflow="visible"/>

        <use xlink:href="#toilets_1_"  width="13.01" height="12" x="-6.51" y="-6" transform="matrix(1 0 0 -1 290.6309 228)" overflow="visible"/>

        <use xlink:href="#toilets_1_"  width="13.01" height="12" x="-6.51" y="-6" transform="matrix(1 0 0 -1 465 228.5)" overflow="visible"/>

        <use xlink:href="#toilets_1_"  width="13.01" height="12" x="-6.51" y="-6" transform="matrix(1 0 0 -1 813 228.2227)" overflow="visible"/>

        <use xlink:href="#stairs_1_"  width="19" height="15.34" x="-9.5" y="-7.67" transform="matrix(0.6651 0 0 -0.6651 905.25 118.7017)" overflow="visible"/>

        <use xlink:href="#toilets_1_"  width="13.01" height="12" x="-6.51" y="-6" transform="matrix(1 0 0 -1 634 228.2437)" overflow="visible"/>