<rect x="253" y="212" fill="#22B573" width="20" height="33"/>
    <rect x="426" y="210" fill="#22B573" width="20" height="33"/>
    <rect x="598" y="211" fill="#22B573" width="20" height="33"/>
        <rect x="773" y="212" fill="#22B573" width="21" height="33"/>
        <rect x="897" y="105" fill="#22B573" width="16" height="33"/>
