<rect id="r1-5-501" x="212" y="105" fill="#FF1D25" width="43" height="43"/>
    <rect id="r1-5-502" x="255" y="105" fill="#FF1D25" width="42" height="43"/>
    <rect id="r1-5-503" x="297" y="105" fill="#FF1D25" width="35" height="43"/>
    <rect id="r1-5-532" x="332" y="105" fill="#FF1D25" width="42" height="43"/>
    <rect id="r1-5-533" x="374" y="105" fill="#FF1D25" width="27" height="43"/>
    <rect id="r1-5-534" x="401" y="105" fill="#FF1D25" width="38" height="43"/>
    <rect id="r1-5-535" x="439" y="105" fill="#FF1D25" width="35" height="43"/>
    <rect id="r1-5-563" x="474" y="105" fill="#FF1D25" width="32" height="43"/>
    <rect id="r1-5-564" x="506" y="105" fill="#FF1D25" width="35" height="43"/>
    <rect id="r1-5-565" x="541" y="105" fill="#FF1D25" width="35" height="43"/>
    <rect id="r1-5-566" x="576" y="105" fill="#FF1D25" width="35" height="43"/>
    <rect id="r1-5-567" x="611" y="105" fill="#FF1D25" width="37" height="43"/>
    <rect id="r1-5-595" x="648" y="105" fill="#FF1D25" width="16" height="43"/>
    <rect id="r1-5-596" x="664" y="105" fill="#FF1D25" width="20" height="43"/>
    <rect id="r1-5-597" x="684" y="105" fill="#FF1D25" width="34" height="43"/>
    <rect id="r1-5-598" x="718" y="105" fill="#FF1D25" width="17" height="43"/>
    <rect id="r1-5-599" x="735" y="105" fill="#FF1D25" width="18" height="43"/>
    <rect id="r1-5-5100" x="753" y="105" fill="#FF1D25" width="24" height="43"/>
    <rect id="r1-5-5102" x="777" y="105" fill="#FF1D25" width="27" height="17"/>
    <rect id="r1-5-5103" x="784" y="122" fill="#FF1D25" width="20" height="14"/>
    <rect id="r1-5-5104" x="784" y="136" fill="#FF1D25" width="20" height="12"/>
    <rect id="r1-5-5105" x="804" y="105" fill="#FF1D25" width="17" height="43"/>
    <rect id="r1-5-5106" x="821" y="105" fill="#FF1D25" width="37" height="43"/>
    <rect id="r1-5-5133" x="821" y="168" fill="#FF1D25" width="37" height="49"/>
    <rect id="r1-5-5126" x="789" y="256" fill="#FF1D25" width="32" height="33"/>
    <rect id="r1-5-5125" x="798" y="289" fill="#FF1D25" width="23" height="13"/>
    <rect id="r1-5-5124" x="789" y="302" fill="#FF1D25" width="32" height="22"/>
    <rect id="r1-5-5123" x="789" y="324" fill="#FF1D25" width="32" height="22"/>
    <rect id="r1-5-5122" x="761" y="346" fill="#FF1D25" width="48" height="23"/>
    <rect id="r1-5-5121" x="748" y="326" fill="#FF1D25" width="31" height="20"/>
    <rect id="r1-5-5120" x="748" y="302" fill="#FF1D25" width="31" height="24"/>
    <rect id="r1-5-5119" x="748" y="289" fill="#FF1D25" width="23" height="13"/>
    <rect id="r1-5-5116" x="748" y="256" fill="#FF1D25" width="32" height="33"/>
    <rect id="r1-5-5112" x="735" y="168" fill="#FF1D25" width="13" height="48"/>
    <rect id="r1-5-5111" x="717" y="168" fill="#FF1D25" width="18" height="48"/>
    <rect id="r1-5-5110" x="701" y="168" fill="#FF1D25" width="16" height="48"/>
    <rect id="r1-5-5109" x="683" y="168" fill="#FF1D25" width="18" height="48"/>
    <rect id="r1-5-5108" x="664" y="168" fill="#FF1D25" width="19" height="48"/>
    <rect id="r1-5-5107" x="646" y="168" fill="#FF1D25" width="19" height="48"/>
    <rect id="r1-5-585" x="613" y="256" fill="#FF1D25" width="33" height="33"/>
    <rect id="r1-5-584" x="623" y="289" fill="#FF1D25" width="23" height="13"/>
    <rect id="r1-5-583" x="613" y="302" fill="#FF1D25" width="33" height="22"/>
    <rect id="r1-5-582" x="613" y="324" fill="#FF1D25" width="33" height="22"/>
    <rect id="r1-5-581" x="581" y="346" fill="#FF1D25" width="49" height="23"/>
    <rect id="r1-5-580" x="570" y="324" fill="#FF1D25" width="32" height="22"/>
    <rect id="r1-5-579" x="570" y="302" fill="#FF1D25" width="32" height="23"/>
    <rect id="r1-5-578" x="570" y="282" fill="#FF1D25" width="23" height="20"/>
    <rect id="r1-5-577" x="570" y="256" fill="#FF1D25" width="32" height="26"/>
    <rect id="r1-5-571" x="547" y="168" fill="#FF1D25" width="23" height="47"/>
    <rect id="r1-5-570" x="522" y="168" fill="#FF1D25" width="25" height="47"/>
    <rect id="r1-5-569" x="504" y="168" fill="#FF1D25" width="18" height="47"/>
    <rect id="r1-5-568" x="475" y="168" fill="#FF1D25" width="29" height="47"/>
    <rect id="r1-5-553" x="442" y="256" fill="#FF1D25" width="33" height="25"/>
    <rect id="r1-5-552" x="451" y="281" fill="#FF1D25" width="24" height="21"/>
    <rect id="r1-5-551" x="442" y="302" fill="#FF1D25" width="33" height="22"/>
    <rect id="r1-5-550" x="442" y="324" fill="#FF1D25" width="33" height="21"/>
    <rect id="r1-5-549" x="410" y="345" fill="#FF1D25" width="48" height="24"/>
    <rect id="r1-5-548" x="398" y="324" fill="#FF1D25" width="34" height="21"/>
    <rect id="r1-5-547" x="398" y="302" fill="#FF1D25" width="34" height="22"/>
    <rect id="r1-5-546" x="398" y="288" fill="#FF1D25" width="25" height="14"/>
    <rect id="r1-5-545" x="398" y="256" fill="#FF1D25" width="34" height="32"/>
    <rect id="r1-5-539" x="381" y="168" fill="#FF1D25" width="17" height="46"/>
    <rect id="r1-5-538" x="363" y="168" fill="#FF1D25" width="18" height="46"/>
    <rect id="r1-5-537" x="348" y="168" fill="#FF1D25" width="15" height="46"/>
    <rect id="r1-5-536" x="330" y="168" fill="#FF1D25" width="18" height="46"/>
    <rect id="r1-5-530" x="300" y="168" fill="#FF1D25" width="30" height="46"/>
    <rect id="r1-5-521" x="267" y="258" fill="#FF1D25" width="33" height="23"/>
    <rect id="r1-5-520" x="267" y="281" fill="#FF1D25" width="33" height="17"/>
    <rect id="r1-5-519" x="274" y="298" fill="#FF1D25" width="26" height="15"/>
    <rect id="r1-5-518" x="266" y="313" fill="#FF1D25" width="34" height="32"/>
    <rect id="r1-5-517" x="236" y="345" fill="#FF1D25" width="47" height="24"/>
    <rect id="r1-5-515" x="226" y="324" fill="#FF1D25" width="21" height="21"/>
    <rect id="r1-5-514" x="226" y="301" fill="#FF1D25" width="30" height="23"/>
    <rect id="r1-5-513" x="226" y="286" fill="#FF1D25" width="30" height="15"/>
    <rect id="r1-5-512" x="226" y="271" fill="#FF1D25" width="30" height="15"/>
    <rect id="r1-5-511" x="226" y="258" fill="#FF1D25" width="30" height="13"/>
    <rect id="r1-5-505" x="212" y="167" fill="#FF1D25" width="14" height="45"/>

    <rect id="r1-5-507" x="226" y="212" fill="#F7931E" width="18" height="32"/>
    <rect id="r1-5-509" x="226" y="244" fill="#F7931E" width="18" height="14"/>
    <rect id="r1-5-528" x="282" y="200" fill="#F7931E" width="18" height="9"/>
    <rect id="r1-5-529" x="282" y="168" fill="#F7931E" width="18" height="32"/>
    <rect id="r1-5-541" x="398" y="212" fill="#F7931E" width="18" height="32"/>
    <rect id="r1-5-543" x="398" y="244" fill="#F7931E" width="18" height="12"/>
    <rect id="r1-5-575" x="570" y="244" fill="#F7931E" width="18" height="12"/>
    <rect id="r1-5-573" x="570" y="212" fill="#F7931E" width="18" height="32"/>
    <rect id="r1-5-5115" x="748" y="244" fill="#F7931E" width="16" height="12"/>
    <rect id="r1-5-5114" x="748" y="212" fill="#F7931E" width="16" height="32"/>
    <rect id="r1-5-560" x="459" y="200" fill="#F7931E" width="16" height="9"/>
    <rect id="r1-5-561" x="459" y="168" fill="#F7931E" width="16" height="32"/>
    <rect id="r1-5-592" x="630" y="200" fill="#F7931E" width="16" height="9"/>
    <rect id="r1-5-593" x="630" y="168" fill="#F7931E" width="16" height="32"/>
    <rect id="r1-5-5131" x="805" y="202" fill="#F7931E" width="16" height="9"/>
    <rect id="r1-5-5132" x="805" y="168" fill="#F7931E" width="16" height="34"/>