<rect x="250" y="212" fill="#22B573" width="20" height="33"/>
    <rect x="426" y="210" fill="#22B573" width="20" height="33"/>
    <rect x="598" y="211" fill="#22B573" width="20" height="33"/>
        <rect x="773" y="212" fill="#22B573" width="21" height="33"/>
