<rect x="4" y="105" width="181" height="235"/>
<rect x="4" y="340" width="854" height="47"/>
<rect x="4" y="387" width="249" height="10"/>
<rect x="264" y="387" width="167" height="10"/>
<rect x="440" y="387" width="159" height="10"/>
<rect x="609" y="387" width="168" height="10"/>
<rect x="786" y="387" width="72" height="10"/>
<rect x="746" y="299" width="13" height="41"/>
<rect x="804" y="299" width="14" height="41"/>
<rect x="759" y="324" width="45" height="16"/>
<rect x="570" y="300" width="10" height="40"/>
<rect x="628" y="300" width="13" height="40"/>
<rect x="580" y="325" width="48" height="15"/>
<rect x="398" y="301" width="13" height="39"/>
<rect x="457" y="301" width="15" height="39"/>
<rect x="411" y="324" width="46" height="16"/>
<rect x="224" y="302" width="12" height="38"/>
<rect x="283" y="302" width="14" height="38"/>
<rect x="236" y="324" width="47" height="16"/>
<rect x="185" y="212" width="39" height="128"/>
<rect x="858" y="105" width="136" height="63"/>
<rect x="250" y="168" width="20" height="10"/>
<rect x="265" y="178" width="5" height="26"/>
<rect x="426" y="168" width="20" height="10"/>
<rect x="440" y="178" width="6" height="26"/>
<rect x="596" y="168" width="20" height="10"/>
<rect x="609" y="178" width="7" height="27"/>
<rect x="773" y="168" width="21" height="10"/>
<rect x="792" y="178" width="2" height="34"/>
<rect x="773" y="204" width="19" height="8"/>
<rect x="596" y="205" width="20" height="7"/>
<rect x="426" y="204" width="20" height="8"/>
<rect x="250" y="204" width="20" height="8"/>
<rect x="858" y="168" width="2" height="229"/>