<rect id="r1-6-601" x="185" y="105" fill="#FF1D25" width="60" height="43"/>
<rect id="r1-6-602" x="245" y="105" fill="#FF1D25" width="17" height="43"/>
<rect id="r1-6-603" x="262" y="105" fill="#FF1D25" width="16" height="43"/>
<rect id="r1-6-604" x="278" y="105" fill="#FF1D25" width="18" height="43"/>
<rect id="r1-6-605" x="296" y="105" fill="#FF1D25" width="33" height="43"/>
<rect id="r1-6-606" x="329" y="105" fill="#FF1D25" width="42" height="43"/>
<rect id="r1-6-632" x="371" y="105" fill="#FF1D25" width="27" height="43"/>
<rect id="r1-6-633" x="398" y="105" fill="#FF1D25" width="20" height="43"/>
<rect id="r1-6-634" x="418" y="105" fill="#FF1D25" width="20" height="43"/>
<rect id="r1-6-635" x="438" y="105" fill="#FF1D25" width="17" height="43"/>
<rect id="r1-6-636" x="455" y="105" fill="#FF1D25" width="26" height="43"/>
<rect id="r1-6-637" x="481" y="105" fill="#FF1D25" width="22" height="43"/>
<rect id="r1-6-638" x="503" y="105" fill="#FF1D25" width="70" height="43"/>
<rect id="r1-6-639" x="573" y="105" fill="#FF1D25" width="34" height="43"/>
<rect id="r1-6-640" x="607" y="105" fill="#FF1D25" width="37" height="43"/>
<rect id="r1-6-686" x="644" y="105" fill="#FF1D25" width="36" height="43"/>
<rect id="r1-6-687" x="680" y="105" fill="#FF1D25" width="34" height="43"/>
<rect id="r1-6-688" x="714" y="105" fill="#FF1D25" width="35" height="43"/>
<rect id="r1-6-689" x="749" y="105" fill="#FF1D25" width="17" height="43"/>
<rect id="r1-6-690" x="766" y="105" fill="#FF1D25" width="17" height="43"/>
<rect id="r1-6-691" x="783" y="105" fill="#FF1D25" width="16" height="43"/>
<rect id="r1-6-692" x="799" y="105" fill="#FF1D25" width="18" height="43"/>
<rect id="r1-6-6115" x="817" y="105" fill="#FF1D25" width="17" height="43"/>
<rect id="r1-6-6116" x="834" y="105" fill="#FF1D25" width="24" height="43"/>
<rect id="r1-6-607" x="185" y="168" fill="#FF1D25" width="24" height="44"/>
<rect id="r1-6-608" x="209" y="168" fill="#FF1D25" width="20" height="44"/>
<rect id="r1-6-614" x="224" y="258" fill="#FF1D25" width="29" height="22"/>
<rect id="r1-6-615" x="224" y="280" fill="#FF1D25" width="29" height="22"/>
<rect id="r1-6-619" x="266" y="258" fill="#FF1D25" width="31" height="22"/>
<rect id="r1-6-618" x="266" y="280" fill="#FF1D25" width="31" height="22"/>
<rect id="r1-6-617" x="236" y="302" fill="#FF1D25" width="47" height="22"/>
<rect id="r1-6-628" x="297" y="168" fill="#FF1D25" width="32" height="44"/>
<rect id="r1-6-629" x="329" y="168" fill="#FF1D25" width="17" height="44"/>
<rect id="r1-6-630" x="346" y="168" fill="#FF1D25" width="18" height="44"/>
<rect id="r1-6-641" x="364" y="168" fill="#FF1D25" width="34" height="44"/>
<rect id="r1-6-647" x="398" y="256" fill="#FF1D25" width="33" height="24"/>
<rect id="r1-6-648" x="398" y="280" fill="#FF1D25" width="25" height="21"/>
<rect id="r1-6-650" x="411" y="301" fill="#FF1D25" width="46" height="23"/>
<rect id="r1-6-651" x="451" y="280" fill="#FF1D25" width="21" height="21"/>
<rect id="r1-6-652" x="443" y="258" fill="#FF1D25" width="29" height="22"/>
<rect id="r1-6-661" x="472" y="168" fill="#FF1D25" width="15" height="44"/>
<rect id="r1-6-662" x="487" y="168" fill="#FF1D25" width="17" height="44"/>
<rect id="r1-6-663" x="504" y="168" fill="#FF1D25" width="19" height="44"/>
<rect id="r1-6-664" x="523" y="168" fill="#FF1D25" width="15" height="44"/>
<rect id="r1-6-665" x="538" y="168" fill="#FF1D25" width="16" height="44"/>
<rect id="r1-6-666" x="554" y="168" fill="#FF1D25" width="16" height="44"/>
<rect id="r1-6-673" x="570" y="258" fill="#FF0000" width="29" height="23"/>
<rect id="r1-6-674" x="570" y="281" fill="#FF1D25" width="21" height="19"/>
<rect id="r1-6-675" x="580" y="300" fill="#FF1D25" width="48" height="25"/>
<rect id="r1-6-676" x="620" y="281" fill="#FF1D25" width="21" height="19"/>
<rect id="r1-6-677" x="612" y="258" fill="#FF1D25" width="29" height="23"/>
<rect id="r1-6-693" x="641" y="168" fill="#FF1D25" width="37" height="44"/>
<rect id="r1-6-694" x="678" y="168" fill="#FF1D25" width="18" height="44"/>
<rect id="r1-6-695" x="696" y="168" fill="#FF1D25" width="18" height="44"/>
<rect id="r1-6-696" x="714" y="168" fill="#FF1D25" width="17" height="44"/>
<rect id="r1-6-697" x="731" y="168" fill="#FF1D25" width="15" height="44"/>
<rect id="r1-6-6102" x="746" y="258" fill="#FF1D25" width="31" height="22"/>
<rect id="r1-6-6103" x="746" y="280" fill="#FF1D25" width="31" height="19"/>
<rect id="r1-6-6105" x="759" y="299" fill="#FF1D25" width="45" height="25"/>
<rect id="r1-6-6107" x="797" y="280" fill="#FF1D25" width="21" height="19"/>
<rect id="r1-6-6108" x="788" y="258" fill="#FF1D25" width="30" height="22"/>
<rect id="r1-6-6117" x="818" y="168" fill="#FF1D25" width="14" height="44"/>
<rect id="r1-6-6118" x="832" y="168" fill="#FF1D25" width="26" height="44"/>

<rect id="r1-6-610" x="224" y="212" fill="#F7931E" width="18" height="32"/>
<rect id="r1-6-612" x="224" y="244" fill="#F7931E" width="18" height="14"/>
<rect id="r1-6-626" x="281" y="200" fill="#F7931E" width="16" height="9"/>
<rect id="r1-6-627" x="281" y="168" fill="#F7931E" width="16" height="32"/>
<rect id="r1-6-643" x="398" y="212" fill="#F7931E" width="18" height="32"/>
<rect id="r1-6-645" x="398" y="244" fill="#F7931E" width="18" height="12"/>
<rect id="r1-6-671" x="570" y="244" fill="#F7931E" width="18" height="14"/>
<rect id="r1-6-669" x="570" y="212" fill="#F7931E" width="18" height="32"/>
<rect id="r1-6-6101" x="746" y="244" fill="#F7931E" width="18" height="14"/>
<rect id="r1-6-699" x="746" y="212" fill="#F7931E" width="18" height="32"/>
<rect id="r1-6-659" x="456" y="200" fill="#F7931E" width="16" height="9"/>
<rect id="r1-6-660" x="456" y="168" fill="#F7931E" width="16" height="32"/>
<rect id="r1-6-684" x="625" y="200" fill="#F7931E" width="16" height="9"/>
<rect id="r1-6-685" x="625" y="168" fill="#F7931E" width="16" height="32"/>
<rect id="r1-6-6113" x="802" y="200" fill="#F7931E" width="16" height="9"/>
<rect id="r1-6-6150" x="802" y="168" fill="#F7931E" width="16" height="32"/>