<rect id="r1-1-118" x="279" y="141" fill="#FF0000" width="15" height="33"/>
    <rect id="r1-1-119" x="294" y="152" fill="#FF0000" width="18" height="33"/>
    <rect id="r1-1-120" x="312" y="152" fill="#FF0000" width="16" height="33"/>
    <rect id="r1-1-121" x="328" y="152" fill="#FF0000" width="16" height="33"/>
    <rect id="r1-1-122" x="344" y="152" fill="#FF0000" width="17" height="33"/>
    <rect id="r1-1-123" x="361" y="152" fill="#FF0000" width="18" height="33"/>
    <rect id="r1-1-124" x="379" y="152" fill="#FF0000" width="17" height="33"/>
    <rect id="r1-1-126" x="393" y="185" fill="#FF0000" width="20" height="33"/>
    <rect id="r1-1-128" x="393" y="218" fill="#FF0000" width="20" height="11"/>
    <rect id="r1-1-191" x="393" y="229" fill="#FF0000" width="35" height="22"/>
    <rect id="r1-1-190" x="393" y="251" fill="#FF0000" width="35" height="20"/>
    <rect id="r1-1-189" x="393" y="271" fill="#FF0000" width="35" height="20"/>
    <rect id="r1-1-188" x="393" y="291" fill="#FF0000" width="35" height="21"/>
    <rect id="r1-1-194" x="437" y="291" fill="#FF0000" width="30" height="21"/>
    <rect id="r1-1-193" x="437" y="271" fill="#FF0000" width="30" height="20"/>
    <rect id="r1-1-192" x="437" y="230" fill="#FF0000" width="30" height="41"/>
    <rect id="r1-1-137" x="453" y="141" fill="#FF0000" width="14" height="34"/>
    <rect id="r1-1-138" x="467" y="152" fill="#FF0000" width="31" height="33"/>
    <rect id="r1-1-139" x="498" y="151" fill="#FF0000" width="34" height="34"/>
    <rect id="r1-1-140" x="532" y="151" fill="#FF0000" width="34" height="34"/>
    <rect id="r1-1-142" x="561" y="185" fill="#FF0000" width="23" height="31"/>
    <rect id="r1-1-144" x="561" y="216" fill="#FF0000" width="23" height="13"/>
    <rect id="r1-1-1108" x="561" y="229" fill="#FF0000" width="35" height="42"/>
    <rect id="r1-1-1107" x="561" y="271" fill="#FF0000" width="35" height="27"/>
    <rect id="r1-1-1106" x="561" y="298" fill="#FF0000" width="35" height="14"/>
    <rect id="r1-1-1113" x="607" y="286" fill="#FF0000" width="29" height="26"/>
    <rect id="r1-1-1112" x="607" y="271" fill="#FF0000" width="29" height="15"/>
    <rect id="r1-1-1111" x="607" y="245" fill="#FF0000" width="29" height="26"/>
    <rect id="r1-1-1109" x="608" y="229" fill="#FF0000" width="28" height="16"/>
    <rect id="r1-1-152" x="620" y="141" fill="#FF0000" width="16" height="34"/>
    <rect id="r1-1-153" x="636" y="141" fill="#FF0000" width="39" height="44"/>
    <rect id="r1-1-154" x="675" y="148" fill="#FF0000" width="66" height="37"/>
    <rect id="r1-1-157" x="738" y="185" fill="#FF0000" width="18" height="33"/>
    <rect id="r1-1-159" x="738" y="218" fill="#FF0000" width="18" height="11"/>
    <rect id="r1-1-1129" x="738" y="229" fill="#FF0000" width="32" height="29"/>
    <rect id="r1-1-1128" x="738" y="258" fill="#FF0000" width="32" height="13"/>
    <rect id="r1-1-1127" x="738" y="271" fill="#FF0000" width="32" height="15"/>
    <rect id="r1-1-1126" x="738" y="286" fill="#FF0000" width="32" height="16"/>
    <rect id="r1-1-1125" x="738" y="302" fill="#FF0000" width="32" height="10"/>
    <rect id="r1-1-1131" x="780" y="271" fill="#FF0000" width="33" height="41"/>
    <rect id="r1-1-1130" x="780" y="230" fill="#FF0000" width="33" height="41"/>
    <rect id="r1-1-167" x="796" y="141" fill="#FF0000" width="17" height="34"/>
    <rect id="r1-1-168" x="813" y="141" fill="#FF0000" width="32" height="44"/>
    <rect id="r1-1-169" x="835" y="122" fill="#FF0000" width="47" height="19"/>
    <rect id="r1-1-175" x="808" y="79" fill="#FF0000" width="37" height="43"/>
    <rect id="r1-1-1132" x="800" y="312" fill="#FF0000" width="45" height="44"/>
    <rect id="r1-1-1133" x="783" y="323" fill="#FF0000" width="17" height="33"/>
    <rect id="r1-1-1123" x="740" y="323" fill="#FF0000" width="27" height="33"/>
    <rect id="r1-1-1121" x="724" y="323" fill="#FF0000" width="16" height="33"/>
    <rect id="r1-1-1120" x="707" y="323" fill="#FF0000" width="17" height="33"/>
    <rect id="r1-1-1119" x="689" y="323" fill="#FF0000" width="18" height="33"/>
    <rect id="r1-1-1118" x="672" y="323" fill="#FF0000" width="17" height="33"/>
    <rect id="r1-1-1117" x="654" y="323" fill="#FF0000" width="18" height="33"/>
    <rect id="r1-1-1116" x="628" y="323" fill="#FF0000" width="26" height="33"/>
    <rect id="r1-1-1115" x="609" y="323" fill="#FF0000" width="19" height="33"/>
    <rect id="r1-1-1103" x="566" y="323" fill="#FF0000" width="25" height="33"/>
    <rect id="r1-1-1102" x="549" y="323" fill="#FF0000" width="17" height="33"/>
    <rect id="r1-1-1101" x="530" y="323" fill="#FF0000" width="19" height="33"/>
    <rect id="r1-1-1100" x="515" y="323" fill="#FF0000" width="15" height="33"/>
    <rect id="r1-1-199" x="496" y="323" fill="#FF0000" width="19" height="33"/>
    <rect id="r1-1-198" x="472" y="323" fill="#FF0000" width="24" height="33"/>
    <rect id="r1-1-197" x="459" y="323" fill="#FF0000" width="13" height="33"/>
    <rect id="r1-1-196" x="441" y="323" fill="#FF0000" width="18" height="33"/>
    <rect id="r1-1-185" x="396" y="323" fill="#FF0000" width="28" height="33"/>
    <rect id="r1-1-184" x="358" y="323" fill="#FF0000" width="38" height="33"/>
    <rect id="r1-1-183" x="325" y="323" fill="#FF0000" width="33" height="33"/>
    <rect id="r1-1-182" x="292" y="323" fill="#FF0000" width="33" height="33"/>
    <rect id="r1-1-178" x="185" y="312" fill="#FF0000" width="41" height="44"/>
    <rect id="r1-1-179" x="253" y="271" fill="#FF0000" width="13" height="41"/>
    <rect id="r1-1-180" x="266" y="271" fill="#FF0000" width="28" height="40"/>
    <rect id="r1-1-101" x="12" y="79" fill="#FF0000" width="181" height="92"/>
    <rect id="r1-1-103" x="12" y="171" fill="#FF0000" width="181" height="14"/>