<rect x="249" y="185" fill="#22B573" width="20" height="33"/>
    <rect x="424" y="185" fill="#22B573" width="20" height="33"/>
    <rect x="590" y="185" fill="#22B573" width="20" height="33"/>
        <rect x="767" y="185" fill="#22B573" width="21" height="33"/>
    <rect x="259" y="231" fill="#22B573" width="35" height="40"/>
    <rect x="331" y="110" fill="#22B573" width="46" height="15"/>
    <rect x="504" y="110" fill="#22B573" width="46" height="15"/>
    <rect x="679" y="110" fill="#22B573" width="46" height="15"/>
    <rect x="251" y="323" fill="#22B573" width="16" height="33"/>

    <rect x="424" y="323" fill="#22B573" width="17" height="33"/>

    <rect x="591" y="323" fill="#22B573" width="18" height="33"/>

    <rect x="767" y="323" fill="#22B573" width="16" height="33"/>