<rect id="t1-1-1" x="279" y="174" fill="#FF00FF" width="15" height="57"/>
    <rect id="t1-1-2" x="453" y="175" fill="#FF00FF" width="14" height="55"/>
    <rect id="t1-1-3" x="620" y="175" fill="#FF00FF" width="16" height="54"/>
    <rect id="t1-1-4" x="796" y="175" fill="#FF00FF" width="17" height="55"/>