<?xml version="1.0" encoding="utf-8"?>
<!-- Generator: Adobe Illustrator 16.0.0, SVG Export Plug-In . SVG Version: 6.00 Build 0)  -->
<!DOCTYPE svg PUBLIC "-//W3C//DTD SVG 1.1//EN" "http://www.w3.org/Graphics/SVG/1.1/DTD/svg11.dtd">
<svg version="1.1" id="Layer_1" xmlns="http://www.w3.org/2000/svg" xmlns:xlink="http://www.w3.org/1999/xlink" x="0px" y="0px"
	 width="39px" height="24px" viewBox="0 0 39 24" enable-background="new 0 0 39 24" xml:space="preserve">
<g>
	<polygon fill="#F7F7F7" points="16,9 4,9 4,6 0,6 0,5.304 0,8.92 0,20 4,20 4,13 16,13 16,18 19,18 19,8.92 19,5.304 19,0 16,0 	
		"/>
	<polygon fill="#F7F7F7" points="37.342,4 21,4 21,7 35,7 35,11 36.094,11 26.296,11 21,11 21,10.696 21,24 24,24 24,15 34,15 
		34,19 38,19 38,10.696 38,13 39,13 39,2.937 39,4 	"/>
</g>
</svg>
