<?xml version="1.0" encoding="utf-8"?>
<!-- Generator: Adobe Illustrator 16.0.0, SVG Export Plug-In . SVG Version: 6.00 Build 0)  -->
<!DOCTYPE svg PUBLIC "-//W3C//DTD SVG 1.1//EN" "http://www.w3.org/Graphics/SVG/1.1/DTD/svg11.dtd">
<svg version="1.1" xmlns="http://www.w3.org/2000/svg" xmlns:xlink="http://www.w3.org/1999/xlink" x="0px" y="0px" width="1000px"
	 height="500px" viewBox="0 0 1000 500" enable-background="new 0 0 1000 500" xml:space="preserve">
<symbol  id="elevator" viewBox="-6 -9.96 12 19.92">
	<g transform="scale(0.24,0.24)">
		<path fill="#93278F" d="M-25,8.5v-50h50v50H-25z M16.67-33.17h-33.33V0.16h33.33V-33.17z"/>
		<path id="path3265_2_" fill="#93278F" d="M7.78,37.89c-0.04,4.79,6.24,4.85,6.28,0l-0.11-14.57l3.39,4.6
			c2.32,2.81,6.42-1.13,3.87-4.32l-8.17-10.79c-1.28-1.43-2.97-1.42-4.24,0L0.62,23.63c-2.51,3.19,1.62,7.18,3.9,4.32l3.36-4.64
			L7.78,37.89"/>
		<path id="path3267_2_" fill="#93278F" d="M-15,15.32c-0.04-4.79,6.23-4.84,6.27,0l-0.11,14.57l3.39-4.56
			c2.32-2.85,6.42,1.1,3.91,4.28l-8.21,10.78c-1.29,1.44-2.96,1.43-4.23,0l-8.18-10.82c-2.51-3.18,1.62-7.17,3.91-4.27l3.36,4.6
			L-15,15.32"/>
		<path id="path3269_2_" fill="#93278F" d="M14.42-18.16c0-0.75-0.53-1.25-1.13-1.25c0,0-7.32,0-7.34,0c-0.57,0-1.11,0.51-1.1,1.25
			v8.8c-0.02,1.02,0.72,1.71,1.53,1.7c-0.02,0.02,6.5,0,6.5,0c0.87,0.02,1.53-0.75,1.53-1.7V-18.16"/>
		<path id="path3271_2_" fill="#93278F" d="M12.63-19.09H9.82v-11.95c0.01-2.11,2.8-2.11,2.81,0V-19.09"/>
		<path id="path3273_2_" fill="#93278F" d="M9.42-19.09H6.61v-11.95c0-2.09,2.8-2.09,2.81,0V-19.09"/>
		<path id="path3275_2_" fill="#93278F" d="M9.67-6.93c1.14,0.01,2.08,1.05,2.08,2.34c0,1.27-0.94,2.3-2.08,2.3
			c-1.17,0-2.11-1.03-2.11-2.3C7.56-5.89,8.5-6.93,9.67-6.93"/>
		<path id="path3277_2_" fill="#93278F" d="M4.38-18.16c0-0.75-0.53-1.25-1.14-1.25c0,0-7.31,0-7.33,0c-0.57,0-1.11,0.51-1.09,1.25
			v8.8c-0.01,1.02,0.72,1.71,1.53,1.7c-0.02,0.02,6.49,0,6.49,0c0.87,0.02,1.53-0.75,1.54-1.7V-18.16"/>
		<path id="path3279_2_" fill="#93278F" d="M2.6-19.09h-2.81v-11.95c0.01-2.11,2.8-2.11,2.81,0V-19.09"/>
		<path id="path3281_2_" fill="#93278F" d="M-0.62-19.09h-2.81v-11.95c0-2.09,2.8-2.09,2.81,0V-19.09"/>
		<path id="path3283_2_" fill="#93278F" d="M-0.36-6.93c1.14,0.01,2.08,1.05,2.08,2.34c0,1.27-0.94,2.3-2.08,2.3
			c-1.18,0-2.11-1.03-2.12-2.3C-2.47-5.89-1.54-6.93-0.36-6.93"/>
		<path id="path3285_2_" fill="#93278F" d="M-5.66-18.16c0-0.75-0.53-1.25-1.13-1.25c0,0-7.32,0-7.33,0c-0.57,0-1.12,0.51-1.1,1.25
			v8.8c-0.02,1.02,0.72,1.71,1.54,1.7c-0.02,0.02,6.5,0,6.5,0c0.87,0.02,1.53-0.75,1.53-1.7V-18.16"/>
		<path id="path3287_2_" fill="#93278F" d="M-7.44-19.09h-2.81v-11.95c0.01-2.11,2.81-2.11,2.81,0V-19.09"/>
		<path id="path3289_2_" fill="#93278F" d="M-10.66-19.09h-2.81v-11.95c0-2.09,2.8-2.09,2.81,0V-19.09"/>
		<path id="path3291_2_" fill="#93278F" d="M-10.4-6.93c1.14,0.01,2.08,1.05,2.08,2.34c0,1.27-0.95,2.3-2.08,2.3
			c-1.18,0-2.12-1.03-2.12-2.3C-12.52-5.89-11.58-6.93-10.4-6.93"/>
	</g>
</symbol>
<symbol  id="stairs_1_" viewBox="-9.5 -7.67 19 15.34">
	<path fill="#2E3192" d="M-9.5-5.94h3.46v3.42h3.44v3.45h3.49v3.38h3.47v3.36H9.5V5.96H6.08V2.58H2.61v-3.42h-3.46v-3.4h-3.48v-3.43
		H-9.5V-5.94z"/>
</symbol>
<symbol  id="toilets_1_" viewBox="-6.51 -6 13.01 12">
	<g>
		<g id="g1581_1_">
			<path id="path1583_1_" fill="#93278F" d="M0.87,5.89V-5.93h-1.11V5.89H0.87z"/>
			<path id="path1585_1_" fill="#93278F" d="M0.31-0.02"/>
		</g>
		<g id="g1587_1_">
			<g id="g1589_1_">
				<path id="path1591_1_" fill="#93278F" d="M-3.75,4.05c0.54,0,0.97,0.44,0.97,0.97C-2.78,5.56-3.21,6-3.75,6
					c-0.54,0-0.98-0.44-0.98-0.97C-4.73,4.49-4.29,4.05-3.75,4.05z"/>
				<path id="path1593_1_" fill="#93278F" d="M-3.75,5.03"/>
			</g>
			<path id="path1595_1_" fill="#93278F" d="M-3.89-2.13v-3.41c0-0.61-0.92-0.61-0.92,0l0,3.41h-1.22l1.3,4.52h-0.2L-5.7-0.19
				c-0.18-0.56-0.96-0.33-0.78,0.27l0.85,2.81c0.09,0.32,0.5,0.89,1.2,0.89h0.65l0,0h0.7c0.69,0,1.1-0.57,1.21-0.89l0.85-2.8
				c0.17-0.6-0.6-0.85-0.78-0.27l-0.77,2.57H-2.8l1.32-4.52h-1.22v-3.42c0-0.61-0.92-0.61-0.92,0v3.42H-3.89z"/>
		</g>
		<g id="g1597_1_">
			<path id="path1599_1_" fill="#93278F" d="M3.21,3.78c-0.69,0-1.24-0.57-1.24-1.28v-3.02c0-0.59,0.85-0.59,0.85,0v2.76h0.2V-5.4
				c0-0.78,1.13-0.76,1.13,0v4.47h0.19V-5.4c0-0.76,1.13-0.78,1.13,0v7.64h0.2v-2.76c0-0.59,0.84-0.59,0.84,0v3
				c0,0.65-0.5,1.29-1.25,1.29L3.21,3.78z"/>
			<g id="g1601_1_">
				<path id="path1603_1_" fill="#93278F" d="M4.24,4.05c0.54,0,0.97,0.44,0.97,0.97C5.21,5.56,4.77,6,4.24,6S3.26,5.56,3.26,5.03
					C3.26,4.49,3.7,4.05,4.24,4.05z"/>
				<path id="path1605_1_" fill="#93278F" d="M4.24,5.03"/>
			</g>
		</g>
	</g>
</symbol>
<g id="ORIGINAL">
	<g id="NB_x5F_1p.tif">
		<defs>
			<rect id="SVGID_1_" x="-0.33" y="38.43" width="1000" height="354.31"/>
		</defs>
		<clipPath id="SVGID_2_">
			<use xlink:href="#SVGID_1_"  overflow="visible"/>
		</clipPath>
		<g transform="matrix(1 0 0 1 2.980232e-008 0)" clip-path="url(#SVGID_2_)">
			
				<image overflow="visible" width="9266" height="3283" id="NB_x5F_1p_1_" xlink:href="62B44F19.png"  transform="matrix(0.1079 0 0 0.1079 -0.3291 38.4292)">
			</image>
		</g>
	</g>
</g>
<g id="background">
	<rect x="636" y="309" width="102" height="3"/>
	<rect x="294" y="309" width="99" height="3"/>
	<rect x="467" y="309" width="94" height="3"/>
	<rect x="226" y="325" width="25" height="3"/>
	<rect x="264" y="141" width="5" height="44"/>
	<rect x="249" y="178" width="15" height="7"/>
	<rect x="249" y="141" width="15" height="11"/>
	<rect x="424" y="141" width="15" height="12"/>
	<rect x="439" y="141" width="5" height="44"/>
	<rect x="424" y="179" width="15" height="6"/>
	<rect x="590" y="141" width="14" height="13"/>
	<rect x="604" y="141" width="6" height="44"/>
	<rect x="590" y="181" width="14" height="4"/>
	<rect x="767" y="141" width="19" height="13"/>
	<rect x="786" y="141" width="2" height="44"/>
	<rect x="767" y="180" width="19" height="5"/>
	<rect x="193" y="182" width="33" height="3"/>
	<rect x="223" y="141" width="3" height="171"/>
	<rect x="239" y="117" width="47" height="3"/>
	<rect x="238" y="70" width="3" height="50"/>
	<rect x="283" y="70" width="3" height="50"/>
	<rect x="227" y="68" width="3" height="12"/>
	<rect x="193" y="78" width="37" height="3"/>
	<rect x="303" y="70" width="3" height="50"/>
	<rect x="383" y="70" width="3" height="43"/>
	<rect x="410" y="70" width="3" height="50"/>
	<rect x="454" y="70" width="3" height="50"/>
	<rect x="479" y="70" width="3" height="50"/>
	<rect x="580" y="70" width="3" height="50"/>
	<rect x="555" y="70" width="3" height="43"/>
	<rect x="623" y="70" width="3" height="50"/>
	<rect x="650" y="70" width="3" height="50"/>
	<rect x="731" y="70" width="3" height="43"/>
	<rect x="751" y="70" width="3" height="50"/>
	<rect x="796" y="70" width="3" height="50"/>
	<rect x="303" y="117" width="28" height="3"/>
	<rect x="479" y="117" width="25" height="3"/>
	<rect x="651" y="117" width="28" height="3"/>
	<rect x="751" y="117" width="48" height="3"/>
	<rect x="580" y="117" width="46" height="3"/>
	<rect x="410" y="117" width="47" height="3"/>
	<rect x="377" y="110" width="9" height="3"/>
	<rect x="550" y="110" width="8" height="3"/>
	<rect x="725" y="110" width="8" height="3"/>
	<rect x="267" y="353" width="25" height="3"/>
</g>
<g id="rooms">
	<rect id="r1-1-118" x="279" y="141" fill="#FF0000" width="15" height="33"/>
	<rect id="r1-1-119" x="294" y="152" fill="#FF0000" width="18" height="33"/>
	<rect id="r1-1-120" x="312" y="152" fill="#FF0000" width="16" height="33"/>
	<rect id="r1-1-121" x="328" y="152" fill="#FF0000" width="16" height="33"/>
	<rect id="r1-1-122" x="344" y="152" fill="#FF0000" width="17" height="33"/>
	<rect id="r1-1-123" x="361" y="152" fill="#FF0000" width="18" height="33"/>
	<rect id="r1-1-124" x="379" y="152" fill="#FF0000" width="17" height="33"/>
	<rect id="r1-1-126" x="393" y="185" fill="#FF0000" width="20" height="33"/>
	<rect id="r1-1-128" x="393" y="218" fill="#FF0000" width="20" height="11"/>
	<rect id="r1-1-191" x="393" y="229" fill="#FF0000" width="35" height="22"/>
	<rect id="r1-1-190" x="393" y="251" fill="#FF0000" width="35" height="20"/>
	<rect id="r1-1-189" x="393" y="271" fill="#FF0000" width="35" height="20"/>
	<rect id="r1-1-188" x="393" y="291" fill="#FF0000" width="35" height="21"/>
	<rect id="r1-1-194" x="437" y="291" fill="#FF0000" width="30" height="21"/>
	<rect id="r1-1-193" x="437" y="271" fill="#FF0000" width="30" height="20"/>
	<rect id="r1-1-192" x="437" y="230" fill="#FF0000" width="30" height="41"/>
	<rect id="r1-1-137" x="453" y="141" fill="#FF0000" width="14" height="34"/>
	<rect id="r1-1-138" x="467" y="152" fill="#FF0000" width="31" height="33"/>
	<rect id="r1-1-139" x="498" y="151" fill="#FF0000" width="34" height="34"/>
	<rect id="r1-1-140" x="532" y="151" fill="#FF0000" width="34" height="34"/>
	<rect id="r1-1-142" x="561" y="185" fill="#FF0000" width="23" height="31"/>
	<rect id="r1-1-144" x="561" y="216" fill="#FF0000" width="23" height="13"/>
	<rect id="r1-1-1108" x="561" y="229" fill="#FF0000" width="35" height="42"/>
	<rect id="r1-1-1107" x="561" y="271" fill="#FF0000" width="35" height="27"/>
	<rect id="r1-1-1106" x="561" y="298" fill="#FF0000" width="35" height="14"/>
	<rect id="r1-1-1113" x="607" y="286" fill="#FF0000" width="29" height="26"/>
	<rect id="r1-1-1112" x="607" y="271" fill="#FF0000" width="29" height="15"/>
	<rect id="r1-1-1111" x="607" y="245" fill="#FF0000" width="29" height="26"/>
	<rect id="r1-1-1109" x="608" y="229" fill="#FF0000" width="28" height="16"/>
	<rect id="r1-1-152" x="620" y="141" fill="#FF0000" width="16" height="34"/>
	<rect id="r1-1-153" x="636" y="141" fill="#FF0000" width="39" height="44"/>
	<rect id="r1-1-154" x="675" y="148" fill="#FF0000" width="66" height="37"/>
	<rect id="r1-1-157" x="738" y="185" fill="#FF0000" width="18" height="33"/>
	<rect id="r1-1-159" x="738" y="218" fill="#FF0000" width="18" height="11"/>
	<rect id="r1-1-1129" x="738" y="229" fill="#FF0000" width="32" height="29"/>
	<rect id="r1-1-1128" x="738" y="258" fill="#FF0000" width="32" height="13"/>
	<rect id="r1-1-1127" x="738" y="271" fill="#FF0000" width="32" height="15"/>
	<rect id="r1-1-1126" x="738" y="286" fill="#FF0000" width="32" height="16"/>
	<rect id="r1-1-1125" x="738" y="302" fill="#FF0000" width="32" height="10"/>
	<rect id="r1-1-1131" x="780" y="271" fill="#FF0000" width="33" height="41"/>
	<rect id="r1-1-1130" x="780" y="230" fill="#FF0000" width="33" height="41"/>
	<rect id="r1-1-167" x="796" y="141" fill="#FF0000" width="17" height="34"/>
	<rect id="r1-1-168" x="813" y="141" fill="#FF0000" width="32" height="44"/>
	<rect id="r1-1-169" x="835" y="122" fill="#FF0000" width="47" height="19"/>
	<rect id="r1-1-175" x="808" y="79" fill="#FF0000" width="37" height="43"/>
	<rect id="r1-1-1132" x="800" y="312" fill="#FF0000" width="45" height="44"/>
	<rect id="r1-1-1133" x="783" y="323" fill="#FF0000" width="17" height="33"/>
	<rect id="r1-1-1123" x="740" y="323" fill="#FF0000" width="27" height="33"/>
	<rect id="r1-1-1121" x="724" y="323" fill="#FF0000" width="16" height="33"/>
	<rect id="r1-1-1120" x="707" y="323" fill="#FF0000" width="17" height="33"/>
	<rect id="r1-1-1119" x="689" y="323" fill="#FF0000" width="18" height="33"/>
	<rect id="r1-1-1118" x="672" y="323" fill="#FF0000" width="17" height="33"/>
	<rect id="r1-1-1117" x="654" y="323" fill="#FF0000" width="18" height="33"/>
	<rect id="r1-1-1116" x="628" y="323" fill="#FF0000" width="26" height="33"/>
	<rect id="r1-1-1115" x="609" y="323" fill="#FF0000" width="19" height="33"/>
	<rect id="r1-1-1103" x="566" y="323" fill="#FF0000" width="25" height="33"/>
	<rect id="r1-1-1102" x="549" y="323" fill="#FF0000" width="17" height="33"/>
	<rect id="r1-1-1101" x="530" y="323" fill="#FF0000" width="19" height="33"/>
	<rect id="r1-1-1100" x="515" y="323" fill="#FF0000" width="15" height="33"/>
	<rect id="r1-1-199" x="496" y="323" fill="#FF0000" width="19" height="33"/>
	<rect id="r1-1-198" x="472" y="323" fill="#FF0000" width="24" height="33"/>
	<rect id="r1-1-197" x="459" y="323" fill="#FF0000" width="13" height="33"/>
	<rect id="r1-1-196" x="441" y="323" fill="#FF0000" width="18" height="33"/>
	<rect id="r1-1-185" x="396" y="323" fill="#FF0000" width="28" height="33"/>
	<rect id="r1-1-184" x="358" y="323" fill="#FF0000" width="38" height="33"/>
	<rect id="r1-1-183" x="325" y="323" fill="#FF0000" width="33" height="33"/>
	<rect id="r1-1-182" x="292" y="323" fill="#FF0000" width="33" height="33"/>
	<rect id="r1-1-178" x="185" y="312" fill="#FF0000" width="41" height="44"/>
	<rect id="r1-1-179" x="253" y="271" fill="#FF0000" width="13" height="41"/>
	<rect id="r1-1-180" x="266" y="271" fill="#FF0000" width="28" height="40"/>
	<rect id="r1-1-101" x="12" y="79" fill="#FF0000" width="181" height="92"/>
	<rect id="r1-1-103" x="12" y="171" fill="#FF0000" width="181" height="14"/>
</g>
<g id="toilets">
	<rect id="t1-1-1" x="279" y="174" fill="#FF00FF" width="15" height="57"/>
	<rect id="t1-1-2" x="453" y="175" fill="#FF00FF" width="14" height="55"/>
	<rect id="t1-1-3" x="620" y="175" fill="#FF00FF" width="16" height="54"/>
	<rect id="t1-1-4" x="796" y="175" fill="#FF00FF" width="17" height="55"/>
</g>
<g id="elevators">
	<rect x="249" y="152" fill="#00FFFF" width="15" height="26"/>
	<rect x="424" y="153" fill="#00FFFF" width="15" height="26"/>
	<rect x="590" y="154" fill="#00FFFF" width="14" height="27"/>
	<rect x="767" y="154" fill="#00FFFF" width="19" height="26"/>
</g>
<g id="stairs">
	<rect x="249" y="185" fill="#22B573" width="20" height="33"/>
	<rect x="424" y="185" fill="#22B573" width="20" height="33"/>
	<rect x="590" y="185" fill="#22B573" width="20" height="33"/>
	<g>
		<rect x="767" y="185" fill="#22B573" width="21" height="33"/>
	</g>
	<rect x="259" y="231" fill="#22B573" width="35" height="40"/>
	<rect x="331" y="110" fill="#22B573" width="46" height="15"/>
	<rect x="504" y="110" fill="#22B573" width="46" height="15"/>
	<rect x="679" y="110" fill="#22B573" width="46" height="15"/>
</g>
<g id="misc">
</g>
<g id="Guides">
</g>
<g id="icons">
	
		<use xlink:href="#elevator"  width="12" height="19.92" x="-6" y="-9.96" transform="matrix(1 0 0 -1 256.5 165)" overflow="visible"/>
	
		<use xlink:href="#elevator"  width="12" height="19.92" x="-6" y="-9.96" transform="matrix(1 0 0 -1 431.5 166.5)" overflow="visible"/>
	
		<use xlink:href="#elevator"  width="12" height="19.92" x="-6" y="-9.96" transform="matrix(1 0 0 -1 597 167)" overflow="visible"/>
	
		<use xlink:href="#elevator"  width="12" height="19.92" x="-6" y="-9.96" transform="matrix(1 0 0 -1 776.5 167)" overflow="visible"/>
	
		<use xlink:href="#stairs_1_"  width="19" height="15.34" x="-9.5" y="-7.67" transform="matrix(0.8112 0 0 -0.8112 259.4766 201.4995)" overflow="visible"/>
	
		<use xlink:href="#stairs_1_"  width="19" height="15.34" x="-9.5" y="-7.67" transform="matrix(0.8112 0 0 -0.8112 433.7607 203.2227)" overflow="visible"/>
	
		<use xlink:href="#stairs_1_"  width="19" height="15.34" x="-9.5" y="-7.67" transform="matrix(0.8112 0 0 -0.8112 600.0313 202.2227)" overflow="visible"/>
	
		<use xlink:href="#stairs_1_"  width="19" height="15.34" x="-9.5" y="-7.67" transform="matrix(0.8112 0 0 -0.8112 777.666 201.2227)" overflow="visible"/>
	
		<use xlink:href="#toilets_1_"  width="13.01" height="12" x="-6.51" y="-6" transform="matrix(0.7813 0 0 -0.7813 286.6372 198.9224)" overflow="visible"/>
	
		<use xlink:href="#toilets_1_"  width="13.01" height="12" x="-6.51" y="-6" transform="matrix(0.6667 0 0 -0.6667 460.0005 201.5)" overflow="visible"/>
	
		<use xlink:href="#toilets_1_"  width="13.01" height="12" x="-6.51" y="-6" transform="matrix(1 0 0 -1 804.5 201.5)" overflow="visible"/>
	
		<use xlink:href="#toilets_1_"  width="13.01" height="12" x="-6.51" y="-6" transform="matrix(1 0 0 -1 628.3125 202.5)" overflow="visible"/>
	
		<use xlink:href="#stairs_1_"  width="19" height="15.34" x="-9.5" y="-7.67" transform="matrix(0.8112 0 0 -0.8112 276.5 249.9995)" overflow="visible"/>
	<rect x="251" y="323" fill="#22B573" width="16" height="33"/>
	
		<use xlink:href="#stairs_1_"  width="19" height="15.34" x="-9.5" y="-7.67" transform="matrix(0.5612 0 0 -0.5612 259.5 339.5)" overflow="visible"/>
	<rect x="424" y="323" fill="#22B573" width="17" height="33"/>
	
		<use xlink:href="#stairs_1_"  width="19" height="15.34" x="-9.5" y="-7.67" transform="matrix(0.5612 0 0 -0.5612 432.1016 339.5)" overflow="visible"/>
	<rect x="591" y="323" fill="#22B573" width="18" height="33"/>
	
		<use xlink:href="#stairs_1_"  width="19" height="15.34" x="-9.5" y="-7.67" transform="matrix(0.5612 0 0 -0.5612 599.9443 339.5)" overflow="visible"/>
	<rect x="767" y="323" fill="#22B573" width="16" height="33"/>
	
		<use xlink:href="#stairs_1_"  width="19" height="15.34" x="-9.5" y="-7.67" transform="matrix(0.5612 0 0 -0.5612 775.4424 340.5547)" overflow="visible"/>
	
		<use xlink:href="#stairs_1_"  width="19" height="15.34" x="-9.5" y="-7.67" transform="matrix(0.8112 0 0 -0.8112 702 117.5)" overflow="visible"/>
	
		<use xlink:href="#stairs_1_"  width="19" height="15.34" x="-9.5" y="-7.67" transform="matrix(0.8112 0 0 -0.8112 527 117.5)" overflow="visible"/>
	
		<use xlink:href="#stairs_1_"  width="19" height="15.34" x="-9.5" y="-7.67" transform="matrix(0.8112 0 0 -0.8112 352.5 117.5)" overflow="visible"/>
</g>
</svg>
