<?xml version="1.0" encoding="utf-8"?>
<!-- Generator: Adobe Illustrator 16.0.0, SVG Export Plug-In . SVG Version: 6.00 Build 0)  -->
<!DOCTYPE svg PUBLIC "-//W3C//DTD SVG 1.1//EN" "http://www.w3.org/Graphics/SVG/1.1/DTD/svg11.dtd">
<svg version="1.1" xmlns="http://www.w3.org/2000/svg" xmlns:xlink="http://www.w3.org/1999/xlink" x="0px" y="0px" width="1000px"
	 height="500px" viewBox="0 0 1000 500" enable-background="new 0 0 1000 500" xml:space="preserve">
<symbol  id="elevator" viewBox="-6 -9.96 12 19.92">
	<g transform="scale(0.24,0.24)">
		<path fill="#93278F" d="M-25,8.5v-50h50v50H-25z M16.67-33.17h-33.33V0.16h33.33V-33.17z"/>
		<path id="path3265_2_" fill="#93278F" d="M7.78,37.89c-0.04,4.79,6.24,4.85,6.28,0l-0.11-14.57l3.39,4.6
			c2.32,2.81,6.42-1.13,3.87-4.32l-8.17-10.79c-1.28-1.43-2.97-1.42-4.24,0L0.62,23.63c-2.51,3.19,1.62,7.18,3.9,4.32l3.36-4.64
			L7.78,37.89"/>
		<path id="path3267_2_" fill="#93278F" d="M-15,15.32c-0.04-4.79,6.23-4.84,6.27,0l-0.11,14.57l3.39-4.56
			c2.32-2.85,6.42,1.1,3.91,4.28l-8.21,10.78c-1.29,1.44-2.96,1.43-4.23,0l-8.18-10.82c-2.51-3.18,1.62-7.17,3.91-4.27l3.36,4.6
			L-15,15.32"/>
		<path id="path3269_2_" fill="#93278F" d="M14.42-18.16c0-0.75-0.53-1.25-1.13-1.25c0,0-7.32,0-7.34,0c-0.57,0-1.11,0.51-1.1,1.25
			v8.8c-0.02,1.02,0.72,1.71,1.53,1.7c-0.02,0.02,6.5,0,6.5,0c0.87,0.02,1.53-0.75,1.53-1.7V-18.16"/>
		<path id="path3271_2_" fill="#93278F" d="M12.63-19.09H9.82v-11.95c0.01-2.11,2.8-2.11,2.81,0V-19.09"/>
		<path id="path3273_2_" fill="#93278F" d="M9.42-19.09H6.61v-11.95c0-2.09,2.8-2.09,2.81,0V-19.09"/>
		<path id="path3275_2_" fill="#93278F" d="M9.67-6.93c1.14,0.01,2.08,1.05,2.08,2.34c0,1.27-0.94,2.3-2.08,2.3
			c-1.17,0-2.11-1.03-2.11-2.3C7.56-5.89,8.5-6.93,9.67-6.93"/>
		<path id="path3277_2_" fill="#93278F" d="M4.38-18.16c0-0.75-0.53-1.25-1.14-1.25c0,0-7.31,0-7.33,0c-0.57,0-1.11,0.51-1.09,1.25
			v8.8c-0.01,1.02,0.72,1.71,1.53,1.7c-0.02,0.02,6.49,0,6.49,0c0.87,0.02,1.53-0.75,1.54-1.7V-18.16"/>
		<path id="path3279_2_" fill="#93278F" d="M2.6-19.09h-2.81v-11.95c0.01-2.11,2.8-2.11,2.81,0V-19.09"/>
		<path id="path3281_2_" fill="#93278F" d="M-0.62-19.09h-2.81v-11.95c0-2.09,2.8-2.09,2.81,0V-19.09"/>
		<path id="path3283_2_" fill="#93278F" d="M-0.36-6.93c1.14,0.01,2.08,1.05,2.08,2.34c0,1.27-0.94,2.3-2.08,2.3
			c-1.18,0-2.11-1.03-2.12-2.3C-2.47-5.89-1.54-6.93-0.36-6.93"/>
		<path id="path3285_2_" fill="#93278F" d="M-5.66-18.16c0-0.75-0.53-1.25-1.13-1.25c0,0-7.32,0-7.33,0c-0.57,0-1.12,0.51-1.1,1.25
			v8.8c-0.02,1.02,0.72,1.71,1.54,1.7c-0.02,0.02,6.5,0,6.5,0c0.87,0.02,1.53-0.75,1.53-1.7V-18.16"/>
		<path id="path3287_2_" fill="#93278F" d="M-7.44-19.09h-2.81v-11.95c0.01-2.11,2.81-2.11,2.81,0V-19.09"/>
		<path id="path3289_2_" fill="#93278F" d="M-10.66-19.09h-2.81v-11.95c0-2.09,2.8-2.09,2.81,0V-19.09"/>
		<path id="path3291_2_" fill="#93278F" d="M-10.4-6.93c1.14,0.01,2.08,1.05,2.08,2.34c0,1.27-0.95,2.3-2.08,2.3
			c-1.18,0-2.12-1.03-2.12-2.3C-12.52-5.89-11.58-6.93-10.4-6.93"/>
	</g>
</symbol>
<symbol  id="stairs_1_" viewBox="-9.5 -7.67 19 15.34">
	<path fill="#2E3192" d="M-9.5-5.94h3.46v3.42h3.44v3.45h3.49v3.38h3.47v3.36H9.5V5.96H6.08V2.58H2.61v-3.42h-3.46v-3.4h-3.48v-3.43
		H-9.5V-5.94z"/>
</symbol>
<symbol  id="toilets_1_" viewBox="-6.51 -6 13.01 12">
	<g>
		<g id="g1581_1_">
			<path id="path1583_1_" fill="#93278F" d="M0.87,5.89V-5.93h-1.11V5.89H0.87z"/>
			<path id="path1585_1_" fill="#93278F" d="M0.31-0.02"/>
		</g>
		<g id="g1587_1_">
			<g id="g1589_1_">
				<path id="path1591_1_" fill="#93278F" d="M-3.75,4.05c0.54,0,0.97,0.44,0.97,0.97C-2.78,5.56-3.21,6-3.75,6
					c-0.54,0-0.98-0.44-0.98-0.97C-4.73,4.49-4.29,4.05-3.75,4.05z"/>
				<path id="path1593_1_" fill="#93278F" d="M-3.75,5.03"/>
			</g>
			<path id="path1595_1_" fill="#93278F" d="M-3.89-2.13v-3.41c0-0.61-0.92-0.61-0.92,0l0,3.41h-1.22l1.3,4.52h-0.2L-5.7-0.19
				c-0.18-0.56-0.96-0.33-0.78,0.27l0.85,2.81c0.09,0.32,0.5,0.89,1.2,0.89h0.65l0,0h0.7c0.69,0,1.1-0.57,1.21-0.89l0.85-2.8
				c0.17-0.6-0.6-0.85-0.78-0.27l-0.77,2.57H-2.8l1.32-4.52h-1.22v-3.42c0-0.61-0.92-0.61-0.92,0v3.42H-3.89z"/>
		</g>
		<g id="g1597_1_">
			<path id="path1599_1_" fill="#93278F" d="M3.21,3.78c-0.69,0-1.24-0.57-1.24-1.28v-3.02c0-0.59,0.85-0.59,0.85,0v2.76h0.2V-5.4
				c0-0.78,1.13-0.76,1.13,0v4.47h0.19V-5.4c0-0.76,1.13-0.78,1.13,0v7.64h0.2v-2.76c0-0.59,0.84-0.59,0.84,0v3
				c0,0.65-0.5,1.29-1.25,1.29L3.21,3.78z"/>
			<g id="g1601_1_">
				<path id="path1603_1_" fill="#93278F" d="M4.24,4.05c0.54,0,0.97,0.44,0.97,0.97C5.21,5.56,4.77,6,4.24,6S3.26,5.56,3.26,5.03
					C3.26,4.49,3.7,4.05,4.24,4.05z"/>
				<path id="path1605_1_" fill="#93278F" d="M4.24,5.03"/>
			</g>
		</g>
	</g>
</symbol>
<g id="ORIGINAL">
	<g id="NB_x5F_2p.tif">
		
			<image overflow="visible" width="9324" height="3666" id="NB_x5F_2p" xlink:href="51EFFFF.png"  transform="matrix(0.1073 0 0 0.1073 -4.882813e-004 39.4102)">
		</image>
	</g>
</g>
<g id="background">
	<rect x="845" y="141" width="60" height="8"/>
	<rect x="636" y="309" width="102" height="3"/>
	<rect x="294" y="309" width="99" height="3"/>
	<rect x="467" y="309" width="94" height="3"/>
	<rect x="265" y="356" width="2" height="12"/>
	<rect x="267" y="365" width="22" height="3"/>
	<rect x="294" y="79" width="30" height="3"/>
	<rect x="467" y="79" width="30" height="3"/>
	<rect x="264" y="141" width="5" height="44"/>
	<rect x="249" y="178" width="15" height="7"/>
	<rect x="249" y="141" width="15" height="11"/>
	<rect x="424" y="141" width="15" height="12"/>
	<rect x="439" y="141" width="5" height="44"/>
	<rect x="424" y="179" width="15" height="6"/>
	<rect x="590" y="141" width="14" height="13"/>
	<rect x="604" y="141" width="6" height="44"/>
	<rect x="590" y="181" width="14" height="4"/>
	<rect x="767" y="141" width="19" height="13"/>
	<rect x="786" y="141" width="2" height="44"/>
	<rect x="767" y="180" width="19" height="5"/>
</g>
<g id="rooms">
	<rect id="r1-2-205" x="224" y="79" fill="#FF0000" width="18" height="30"/>
	<rect id="r1-2-206" x="224" y="109" fill="#FF0000" width="18" height="16"/>
	<rect id="r1-2-222" x="242" y="79" fill="#FF0000" width="52" height="46"/>
	<rect id="r1-2-248" x="324" y="79" fill="#FF0000" width="34" height="46"/>
	<rect id="r1-2-249" x="358" y="79" fill="#FF0000" width="37" height="46"/>
	<rect id="r1-2-250" x="395" y="79" fill="#FF0000" width="40" height="46"/>
	<rect id="r1-2-251" x="435" y="79" fill="#FF0000" width="32" height="46"/>
	<rect id="r1-2-252" x="497" y="79" fill="#FF0000" width="38" height="46"/>
	<rect id="r1-2-253" x="535" y="79" fill="#FF0000" width="33" height="46"/>
	<rect id="r1-2-254" x="568" y="79" fill="#FF0000" width="34" height="46"/>
	<rect id="r1-2-255" x="602" y="79" fill="#FF0000" width="36" height="46"/>
	<rect id="r1-2-256" x="638" y="79" fill="#FF0000" width="34" height="46"/>
	<rect id="r1-2-257" x="672" y="79" fill="#FF0000" width="34" height="46"/>
	<rect id="r1-2-258" x="706" y="79" fill="#FF0000" width="35" height="46"/>
	<rect id="r1-2-2113" x="741" y="79" fill="#FF0000" width="37" height="46"/>
	<rect id="r1-2-2114" x="778" y="79" fill="#FF0000" width="33" height="46"/>
	<rect id="r1-2-2115" x="811" y="79" fill="#FF0000" width="39" height="46"/>
	<rect id="r1-2-2116" x="850" y="79" fill="#FF0000" width="39" height="46"/>
	<rect id="r1-2-2139" x="905" y="80" fill="#FF0000" width="82" height="69"/>
	<rect id="r1-2-2138" x="811" y="141" fill="#FF0000" width="34" height="44"/>
	<rect id="r1-2-2173" x="796" y="141" fill="#FF0000" width="15" height="34"/>
	<rect id="r1-2-2130" x="781" y="230" fill="#FF0000" width="30" height="28"/>
	<rect id="r1-2-2129" x="789" y="258" fill="#FF0000" width="22" height="14"/>
	<rect id="r1-2-2128" x="781" y="272" fill="#FF0000" width="30" height="22"/>
	<rect id="r1-2-2127" x="781" y="294" fill="#FF0000" width="30" height="18"/>
	<rect id="r1-2-247" x="811" y="312" fill="#FF0000" width="39" height="56"/>
	<rect id="r1-2-245" x="782" y="327" fill="#FF0000" width="29" height="41"/>
	<rect id="r1-2-2118" x="738" y="185" fill="#FF0000" width="18" height="33"/>
	<rect id="r1-2-2120" x="738" y="218" fill="#FF0000" width="18" height="13"/>
	<rect id="r1-2-2122" x="738" y="231" fill="#FF0000" width="32" height="27"/>
	<rect id="r1-2-2123" x="738" y="258" fill="#FF0000" width="24" height="15"/>
	<rect id="r1-2-2124" x="738" y="273" fill="#FF0000" width="32" height="21"/>
	<rect id="r1-2-2125" x="738" y="294" fill="#FF0000" width="32" height="18"/>
	<rect id="r1-2-2112" x="748" y="323" fill="#FF0000" width="18" height="45"/>
	<rect id="r1-2-2106" x="721" y="323" fill="#FF0000" width="27" height="45"/>
	<rect id="r1-2-2109" x="704" y="323" fill="#FF0000" width="17" height="45"/>
	<rect id="r1-2-244" x="670" y="323" fill="#FF0000" width="34" height="45"/>
	<rect id="r1-2-243" x="626" y="323" fill="#FF0000" width="44" height="45"/>
	<rect id="r1-2-242" x="607" y="323" fill="#FF0000" width="19" height="45"/>
	<rect id="r1-2-239" x="564" y="323" fill="#FF0000" width="25" height="45"/>
	<rect id="r1-2-238" x="529" y="323" fill="#FF0000" width="35" height="45"/>
	<rect id="r1-2-237" x="496" y="323" fill="#FF0000" width="33" height="45"/>
	<rect id="r1-2-236" x="459" y="323" fill="#FF0000" width="37" height="45"/>
	<rect id="r1-2-235" x="440" y="323" fill="#FF0000" width="19" height="45"/>
	<rect id="r1-2-232" x="396" y="323" fill="#FF0000" width="28" height="45"/>
	<rect id="r1-2-231" x="359" y="323" fill="#FF0000" width="37" height="45"/>
	<rect id="r1-2-230" x="342" y="323" fill="#FF0000" width="17" height="45"/>
	<rect id="r1-2-229" x="322" y="323" fill="#FF0000" width="20" height="45"/>
	<rect id="r1-2-228" x="289" y="323" fill="#FF0000" width="33" height="45"/>
	<rect id="r1-2-224" x="207" y="323" fill="#FF0000" width="42" height="45"/>
	<rect id="r1-2-210" x="188" y="323" fill="#FF0000" width="19" height="45"/>
	<rect id="r1-2-207" x="8" y="312" fill="#FF0000" width="180" height="56"/>
	<rect id="r1-2-201" x="8" y="79" fill="#FF0000" width="216" height="233"/>
	<rect id="r1-2-225" x="252" y="271" fill="#FF0000" width="11" height="41"/>
	<rect id="r1-2-226" x="263" y="271" fill="#FF0000" width="31" height="41"/>
	<rect id="r1-2-221" x="279" y="141" fill="#FF0000" width="15" height="33"/>
	<rect id="r1-2-259" x="294" y="141" fill="#FF0000" width="30" height="44"/>
	<rect id="r1-2-260" x="324" y="141" fill="#FF0000" width="34" height="44"/>
	<rect id="r1-2-261" x="358" y="141" fill="#FF0000" width="37" height="44"/>
	<rect id="r1-2-263" x="393" y="185" fill="#FF0000" width="20" height="33"/>
	<rect id="r1-2-265" x="393" y="218" fill="#FF0000" width="20" height="13"/>
	<rect id="r1-2-295" x="393" y="231" fill="#FF0000" width="35" height="81"/>
	<rect id="r1-2-297" x="437" y="287" fill="#FF0000" width="30" height="25"/>
	<rect id="r1-2-296" x="437" y="272" fill="#FF0000" width="30" height="15"/>
	<rect id="r1-2-293" x="437" y="230" fill="#FF0000" width="30" height="42"/>
	<rect id="r1-2-273" x="453" y="141" fill="#FF0000" width="14" height="34"/>
	<rect id="r1-2-274" x="467" y="141" fill="#FF0000" width="30" height="44"/>
	<rect id="r1-2-275" x="497" y="141" fill="#FF0000" width="35" height="44"/>
	<rect id="r1-2-276" x="532" y="141" fill="#FF0000" width="33" height="44"/>
	<rect id="r1-2-278" x="561" y="185" fill="#FF0000" width="20" height="33"/>
	<rect id="r1-2-280" x="561" y="218" fill="#FF0000" width="20" height="10"/>
	<rect id="r1-2-2101" x="561" y="228" fill="#FF0000" width="33" height="44"/>
	<rect id="r1-2-2100" x="561" y="272" fill="#FF0000" width="33" height="40"/>
	<rect id="r1-2-2107" x="604" y="286" fill="#FF0000" width="32" height="26"/>
	<rect id="r1-2-2106_1_" x="604" y="272" fill="#FF0000" width="32" height="14"/>
	<rect id="r1-2-2105" x="604" y="245" fill="#FF0000" width="31" height="27"/>
	<rect id="r1-2-2104" x="604" y="229" fill="#FF0000" width="31" height="16"/>
	<rect id="r1-2-288" x="621" y="141" fill="#FF0000" width="16" height="34"/>
	<rect id="r1-2-289" x="637" y="141" fill="#FF0000" width="37" height="44"/>
	<rect id="r1-2-290" x="674" y="141" fill="#FF0000" width="34" height="44"/>
	<rect id="r1-2-291" x="708" y="141" fill="#FF0000" width="33" height="44"/>
</g>
<g id="toilets">
	<rect id="t1-3-1" x="279" y="174" fill="#FF00FF" width="15" height="57"/>
	<rect id="t1-3-2" x="453" y="175" fill="#FF00FF" width="14" height="55"/>
	<rect id="t1-3-3" x="621" y="175" fill="#FF00FF" width="16" height="54"/>
	<rect id="t1-3-4" x="796" y="175" fill="#FF00FF" width="15" height="55"/>
</g>
<g id="elevators">
	<rect x="249" y="152" fill="#00FFFF" width="15" height="26"/>
	<rect x="424" y="153" fill="#00FFFF" width="15" height="26"/>
	<rect x="590" y="154" fill="#00FFFF" width="14" height="27"/>
	<rect x="767" y="154" fill="#00FFFF" width="19" height="26"/>
</g>
<g id="stairs">
	<rect x="249" y="185" fill="#22B573" width="20" height="33"/>
	<rect x="424" y="185" fill="#22B573" width="20" height="33"/>
	<rect x="590" y="185" fill="#22B573" width="20" height="33"/>
	<g>
		<rect x="767" y="185" fill="#22B573" width="21" height="33"/>
	</g>
	<g>
		<rect x="889" y="80" fill="#22B573" width="16" height="31"/>
	</g>
	<rect x="259" y="231" fill="#22B573" width="35" height="40"/>
</g>
<g id="misc">
</g>
<g id="Guides">
</g>
<g id="icons">
	
		<use xlink:href="#elevator"  width="12" height="19.92" x="-6" y="-9.96" transform="matrix(1 0 0 -1 256.5 165)" overflow="visible"/>
	
		<use xlink:href="#elevator"  width="12" height="19.92" x="-6" y="-9.96" transform="matrix(1 0 0 -1 431.5 166.5)" overflow="visible"/>
	
		<use xlink:href="#elevator"  width="12" height="19.92" x="-6" y="-9.96" transform="matrix(1 0 0 -1 597 167)" overflow="visible"/>
	
		<use xlink:href="#elevator"  width="12" height="19.92" x="-6" y="-9.96" transform="matrix(1 0 0 -1 776.5 167)" overflow="visible"/>
	
		<use xlink:href="#stairs_1_"  width="19" height="15.34" x="-9.5" y="-7.67" transform="matrix(0.8112 0 0 -0.8112 259.4766 201.4995)" overflow="visible"/>
	
		<use xlink:href="#stairs_1_"  width="19" height="15.34" x="-9.5" y="-7.67" transform="matrix(0.8112 0 0 -0.8112 433.7607 203.2227)" overflow="visible"/>
	
		<use xlink:href="#stairs_1_"  width="19" height="15.34" x="-9.5" y="-7.67" transform="matrix(0.8112 0 0 -0.8112 600.0313 202.2227)" overflow="visible"/>
	
		<use xlink:href="#stairs_1_"  width="19" height="15.34" x="-9.5" y="-7.67" transform="matrix(0.8112 0 0 -0.8112 777.666 201.2227)" overflow="visible"/>
	
		<use xlink:href="#toilets_1_"  width="13.01" height="12" x="-6.51" y="-6" transform="matrix(0.7813 0 0 -0.7813 286.6372 198.9224)" overflow="visible"/>
	
		<use xlink:href="#toilets_1_"  width="13.01" height="12" x="-6.51" y="-6" transform="matrix(0.6667 0 0 -0.6667 460.0005 201.5)" overflow="visible"/>
	
		<use xlink:href="#toilets_1_"  width="13.01" height="12" x="-6.51" y="-6" transform="matrix(1 0 0 -1 803.5 201.2227)" overflow="visible"/>
	
		<use xlink:href="#stairs_1_"  width="19" height="15.34" x="-9.5" y="-7.67" transform="matrix(0.6651 0 0 -0.6651 897.25 93.7017)" overflow="visible"/>
	
		<use xlink:href="#toilets_1_"  width="13.01" height="12" x="-6.51" y="-6" transform="matrix(1 0 0 -1 629.3125 202.5)" overflow="visible"/>
	
		<use xlink:href="#stairs_1_"  width="19" height="15.34" x="-9.5" y="-7.67" transform="matrix(0.8112 0 0 -0.8112 276.5 249.9995)" overflow="visible"/>
	<rect x="249" y="323" fill="#22B573" width="16" height="33"/>
	
		<use xlink:href="#stairs_1_"  width="19" height="15.34" x="-9.5" y="-7.67" transform="matrix(0.5612 0 0 -0.5612 257.5 339.5)" overflow="visible"/>
	<rect x="424" y="323" fill="#22B573" width="16" height="33"/>
	
		<use xlink:href="#stairs_1_"  width="19" height="15.34" x="-9.5" y="-7.67" transform="matrix(0.5612 0 0 -0.5612 432.1016 339.5)" overflow="visible"/>
	<rect x="589" y="323" fill="#22B573" width="18" height="33"/>
	
		<use xlink:href="#stairs_1_"  width="19" height="15.34" x="-9.5" y="-7.67" transform="matrix(0.5612 0 0 -0.5612 598 339.5)" overflow="visible"/>
	<rect x="766" y="327" fill="#22B573" width="16" height="33"/>
	
		<use xlink:href="#stairs_1_"  width="19" height="15.34" x="-9.5" y="-7.67" transform="matrix(0.5612 0 0 -0.5612 774 344.3047)" overflow="visible"/>
</g>
</svg>
