<?xml version="1.0" encoding="utf-8"?>
<!-- Generator: Adobe Illustrator 16.0.0, SVG Export Plug-In . SVG Version: 6.00 Build 0)  -->
<!DOCTYPE svg PUBLIC "-//W3C//DTD SVG 1.1//EN" "http://www.w3.org/Graphics/SVG/1.1/DTD/svg11.dtd">
<svg version="1.1" xmlns="http://www.w3.org/2000/svg" xmlns:xlink="http://www.w3.org/1999/xlink" x="0px" y="0px" width="1000px"
	 height="500px" viewBox="0 0 1000 500" enable-background="new 0 0 1000 500" xml:space="preserve">
<symbol  id="elevator" viewBox="-6 -9.96 12 19.92">
	<g transform="scale(0.24,0.24)">
		<path fill="#93278F" d="M-25,8.5v-50h50v50H-25z M16.67-33.17h-33.33V0.16h33.33V-33.17z"/>
		<path id="path3265_2_" fill="#93278F" d="M7.78,37.89c-0.04,4.79,6.24,4.85,6.28,0l-0.11-14.57l3.39,4.6
			c2.32,2.81,6.42-1.13,3.87-4.32l-8.17-10.79c-1.28-1.43-2.97-1.42-4.24,0L0.62,23.63c-2.51,3.19,1.62,7.18,3.9,4.32l3.36-4.64
			L7.78,37.89"/>
		<path id="path3267_2_" fill="#93278F" d="M-15,15.32c-0.04-4.79,6.23-4.84,6.27,0l-0.11,14.57l3.39-4.56
			c2.32-2.85,6.42,1.1,3.91,4.28l-8.21,10.78c-1.29,1.44-2.96,1.43-4.23,0l-8.18-10.82c-2.51-3.18,1.62-7.17,3.91-4.27l3.36,4.6
			L-15,15.32"/>
		<path id="path3269_2_" fill="#93278F" d="M14.42-18.16c0-0.75-0.53-1.25-1.13-1.25c0,0-7.32,0-7.34,0c-0.57,0-1.11,0.51-1.1,1.25
			v8.8c-0.02,1.02,0.72,1.71,1.53,1.7c-0.02,0.02,6.5,0,6.5,0c0.87,0.02,1.53-0.75,1.53-1.7V-18.16"/>
		<path id="path3271_2_" fill="#93278F" d="M12.63-19.09H9.82v-11.95c0.01-2.11,2.8-2.11,2.81,0V-19.09"/>
		<path id="path3273_2_" fill="#93278F" d="M9.42-19.09H6.61v-11.95c0-2.09,2.8-2.09,2.81,0V-19.09"/>
		<path id="path3275_2_" fill="#93278F" d="M9.67-6.93c1.14,0.01,2.08,1.05,2.08,2.34c0,1.27-0.94,2.3-2.08,2.3
			c-1.17,0-2.11-1.03-2.11-2.3C7.56-5.89,8.5-6.93,9.67-6.93"/>
		<path id="path3277_2_" fill="#93278F" d="M4.38-18.16c0-0.75-0.53-1.25-1.14-1.25c0,0-7.31,0-7.33,0c-0.57,0-1.11,0.51-1.09,1.25
			v8.8c-0.01,1.02,0.72,1.71,1.53,1.7c-0.02,0.02,6.49,0,6.49,0c0.87,0.02,1.53-0.75,1.54-1.7V-18.16"/>
		<path id="path3279_2_" fill="#93278F" d="M2.6-19.09h-2.81v-11.95c0.01-2.11,2.8-2.11,2.81,0V-19.09"/>
		<path id="path3281_2_" fill="#93278F" d="M-0.62-19.09h-2.81v-11.95c0-2.09,2.8-2.09,2.81,0V-19.09"/>
		<path id="path3283_2_" fill="#93278F" d="M-0.36-6.93c1.14,0.01,2.08,1.05,2.08,2.34c0,1.27-0.94,2.3-2.08,2.3
			c-1.18,0-2.11-1.03-2.12-2.3C-2.47-5.89-1.54-6.93-0.36-6.93"/>
		<path id="path3285_2_" fill="#93278F" d="M-5.66-18.16c0-0.75-0.53-1.25-1.13-1.25c0,0-7.32,0-7.33,0c-0.57,0-1.12,0.51-1.1,1.25
			v8.8c-0.02,1.02,0.72,1.71,1.54,1.7c-0.02,0.02,6.5,0,6.5,0c0.87,0.02,1.53-0.75,1.53-1.7V-18.16"/>
		<path id="path3287_2_" fill="#93278F" d="M-7.44-19.09h-2.81v-11.95c0.01-2.11,2.81-2.11,2.81,0V-19.09"/>
		<path id="path3289_2_" fill="#93278F" d="M-10.66-19.09h-2.81v-11.95c0-2.09,2.8-2.09,2.81,0V-19.09"/>
		<path id="path3291_2_" fill="#93278F" d="M-10.4-6.93c1.14,0.01,2.08,1.05,2.08,2.34c0,1.27-0.95,2.3-2.08,2.3
			c-1.18,0-2.12-1.03-2.12-2.3C-12.52-5.89-11.58-6.93-10.4-6.93"/>
	</g>
</symbol>
<symbol  id="stairs_1_" viewBox="-9.5 -7.67 19 15.34">
	<path fill="#2E3192" d="M-9.5-5.94h3.46v3.42h3.44v3.45h3.49v3.38h3.47v3.36H9.5V5.96H6.08V2.58H2.61v-3.42h-3.46v-3.4h-3.48v-3.43
		H-9.5V-5.94z"/>
</symbol>
<symbol  id="toilets_1_" viewBox="-6.51 -6 13.01 12">
	<g>
		<g id="g1581_1_">
			<path id="path1583_1_" fill="#93278F" d="M0.87,5.89V-5.93h-1.11V5.89H0.87z"/>
			<path id="path1585_1_" fill="#93278F" d="M0.31-0.02"/>
		</g>
		<g id="g1587_1_">
			<g id="g1589_1_">
				<path id="path1591_1_" fill="#93278F" d="M-3.75,4.05c0.54,0,0.97,0.44,0.97,0.97C-2.78,5.56-3.21,6-3.75,6
					c-0.54,0-0.98-0.44-0.98-0.97C-4.73,4.49-4.29,4.05-3.75,4.05z"/>
				<path id="path1593_1_" fill="#93278F" d="M-3.75,5.03"/>
			</g>
			<path id="path1595_1_" fill="#93278F" d="M-3.89-2.13v-3.41c0-0.61-0.92-0.61-0.92,0l0,3.41h-1.22l1.3,4.52h-0.2L-5.7-0.19
				c-0.18-0.56-0.96-0.33-0.78,0.27l0.85,2.81c0.09,0.32,0.5,0.89,1.2,0.89h0.65l0,0h0.7c0.69,0,1.1-0.57,1.21-0.89l0.85-2.8
				c0.17-0.6-0.6-0.85-0.78-0.27l-0.77,2.57H-2.8l1.32-4.52h-1.22v-3.42c0-0.61-0.92-0.61-0.92,0v3.42H-3.89z"/>
		</g>
		<g id="g1597_1_">
			<path id="path1599_1_" fill="#93278F" d="M3.21,3.78c-0.69,0-1.24-0.57-1.24-1.28v-3.02c0-0.59,0.85-0.59,0.85,0v2.76h0.2V-5.4
				c0-0.78,1.13-0.76,1.13,0v4.47h0.19V-5.4c0-0.76,1.13-0.78,1.13,0v7.64h0.2v-2.76c0-0.59,0.84-0.59,0.84,0v3
				c0,0.65-0.5,1.29-1.25,1.29L3.21,3.78z"/>
			<g id="g1601_1_">
				<path id="path1603_1_" fill="#93278F" d="M4.24,4.05c0.54,0,0.97,0.44,0.97,0.97C5.21,5.56,4.77,6,4.24,6S3.26,5.56,3.26,5.03
					C3.26,4.49,3.7,4.05,4.24,4.05z"/>
				<path id="path1605_1_" fill="#93278F" d="M4.24,5.03"/>
			</g>
		</g>
	</g>
</symbol>
<g id="ORIGINAL">
	<g id="SB_x5F_3p.tif">
		<defs>
			<rect id="SVGID_1_" x="-1.64" y="168.95" width="1000" height="145.89"/>
		</defs>
		<clipPath id="SVGID_2_">
			<use xlink:href="#SVGID_1_"  overflow="visible"/>
		</clipPath>
		<g transform="matrix(1 0 0 1 1.192093e-007 0)" clip-path="url(#SVGID_2_)">
			
				<image overflow="visible" width="7725" height="1127" id="SB_x5F_3p_1_" xlink:href="20F0837D.png"  transform="matrix(0.1294 0 0 0.1294 -1.6392 168.9521)">
			</image>
		</g>
	</g>
</g>
<g id="background">
</g>
<g id="rooms">
	<rect id="r2-3-331" x="4" y="206" fill="#FF0000" width="109" height="51"/>
	<rect id="r2-3-339" x="111" y="206" fill="#FF0000" width="37" height="28"/>
	<rect id="r2-3-337" x="148" y="206" fill="#FF0000" width="17" height="28"/>
	<rect id="r2-3-325" x="165" y="206" fill="#FF0000" width="17" height="28"/>
	<rect id="r2-3-375" x="284" y="184" fill="#FF0000" width="18" height="50"/>
	<rect id="r2-3-373" x="302" y="184" fill="#FF0000" width="17" height="50"/>
	<rect id="r2-3-368" x="319" y="184" fill="#FF0000" width="16" height="33"/>
	<rect id="r2-3-367" x="335" y="184" fill="#FF0000" width="18" height="50"/>
	<rect id="r2-3-365" x="353" y="184" fill="#FF0000" width="48" height="50"/>
	<rect id="r2-3-363" x="401" y="184" fill="#FF0000" width="35" height="50"/>
	<rect id="r2-3-370" x="436" y="184" fill="#FF0000" width="35" height="50"/>
	<rect id="r2-3-372" x="471" y="184" fill="#FF0000" width="17" height="50"/>
	<rect id="r2-3-372a" x="488" y="184" fill="#FF0000" width="17" height="50"/>
	<rect id="r2-3-374" x="505" y="184" fill="#FF0000" width="17" height="50"/>
	<rect id="r2-3-376" x="522" y="184" fill="#FF0000" width="17" height="50"/>
	<rect id="r2-3-378" x="539" y="184" fill="#FF0000" width="17" height="50"/>
	<rect id="r2-3-380" x="556" y="184" fill="#FF0000" width="17" height="50"/>
	<rect id="r2-3-382" x="573" y="184" fill="#FF0000" width="19" height="50"/>
	<rect id="r2-3-326" x="693" y="206" fill="#FF0000" width="35" height="28"/>
	<rect id="r2-3-328" x="728" y="206" fill="#FF0000" width="35" height="28"/>
	<rect id="r2-3-330" x="763" y="206" fill="#FF0000" width="34" height="28"/>
	<rect id="r2-3-332" x="797" y="206" fill="#FF0000" width="74" height="28"/>
	<rect id="r2-3-302" x="891" y="194" fill="#FF0000" width="17" height="32"/>
	<rect id="r2-3-306" x="908" y="194" fill="#FF0000" width="36" height="40"/>
	<rect id="r2-3-307" x="944" y="194" fill="#FF0000" width="50" height="105"/>
	<rect id="r2-3-308" x="908" y="257" fill="#FF0000" width="36" height="42"/>
	<rect id="r2-3-310" x="867" y="257" fill="#FF0000" width="41" height="42"/>
	<rect id="r2-3-334" x="829" y="257" fill="#FF0000" width="38" height="51"/>
	<rect id="r2-3-340" x="744" y="257" fill="#FF0000" width="16" height="51"/>
	<rect id="r2-3-346" x="675" y="257" fill="#FF0000" width="17" height="51"/>
	<rect id="r2-3-350" x="626" y="257" fill="#FF0000" width="32" height="51"/>
	<rect id="r2-3-352" x="590" y="257" fill="#FF0000" width="36" height="51"/>
	<rect id="r2-3-356" x="573" y="257" fill="#FF0000" width="17" height="51"/>
	<rect id="r2-3-362" x="522" y="257" fill="#FF0000" width="34" height="51"/>
	<rect id="r2-3-364" x="488" y="257" fill="#FF0000" width="34" height="51"/>
	<rect id="r2-3-366" x="470" y="257" fill="#FF0000" width="18" height="51"/>
	<rect id="r2-3-368_1_" x="436" y="257" fill="#FF0000" width="34" height="51"/>
	<rect id="r2-3-361" x="401" y="257" fill="#FF0000" width="35" height="51"/>
	<rect id="r2-3-359" x="384" y="257" fill="#FF0000" width="17" height="51"/>
	<rect id="r2-3-357" x="351" y="257" fill="#FF0000" width="33" height="51"/>
	<rect id="r2-3-355" x="334" y="257" fill="#FF0000" width="17" height="51"/>
	<rect id="r2-3-353" x="318" y="257" fill="#FF0000" width="16" height="51"/>
	<rect id="r2-3-351" x="301" y="257" fill="#FF0000" width="17" height="52"/>
	<rect id="r2-3-349" x="283" y="257" fill="#FF0000" width="18" height="51"/>
	<rect id="r2-3-347" x="249" y="257" fill="#FF0000" width="34" height="51"/>
	<rect id="r2-3-345" x="233" y="257" fill="#FF0000" width="16" height="51"/>
	<rect id="r2-3-343" x="215" y="257" fill="#FF0000" width="18" height="51"/>
	<rect id="r2-3-341" x="198" y="257" fill="#FF0000" width="17" height="51"/>
	<rect id="r2-3-339_1_" x="182" y="257" fill="#FF0000" width="17" height="51"/>
	<rect id="r2-3-337_1_" x="148" y="257" fill="#FF0000" width="34" height="51"/>
	<rect id="r2-3-335" x="129" y="257" fill="#FF0000" width="19" height="51"/>
	<rect id="r2-3-333" x="4" y="257" fill="#FF0000" width="125" height="51"/>
	<rect id="r2-3-336" x="796" y="257" fill="#FF0000" width="33" height="51"/>
	<rect id="r2-3-338" x="760" y="257" fill="#FF0000" width="36" height="51"/>
	<rect id="r2-3-342" x="727" y="257" fill="#FF0000" width="17" height="51"/>
	<rect id="r2-3-344" x="692" y="257" fill="#FF0000" width="35" height="51"/>
	<rect id="r2-3-348" x="658" y="257" fill="#FF0000" width="17" height="51"/>
	<rect id="r2-3-358" x="556" y="274" fill="#FF0000" width="17" height="34"/>
</g>
<g id="toilets">
	<rect x="182" y="206" fill="#FF00FF" width="54" height="28"/>
	<rect x="641" y="206" fill="#FF00FF" width="52" height="28"/>
</g>
<g id="elevators">
	<rect x="236" y="206" fill="#00FFFF" width="15" height="28"/>
	<rect x="626" y="206" fill="#00FFFF" width="15" height="28"/>
</g>
<g id="stairs">
	<rect x="251" y="177" fill="#00FF00" width="33" height="43"/>
	<rect x="592" y="177" fill="#00FF00" width="34" height="45"/>
	<rect x="871" y="194" fill="#00FF00" width="20" height="35"/>
</g>
<g id="misc">
</g>
<g id="Guides">
	
		<use xlink:href="#stairs_1_"  width="19" height="15.34" x="-9.5" y="-7.67" transform="matrix(1 0 0 -1 266.9634 197.7378)" overflow="visible"/>
	
		<use xlink:href="#stairs_1_"  width="19" height="15.34" x="-9.5" y="-7.67" transform="matrix(1 0 0 -1 608.7129 197.7378)" overflow="visible"/>
	
		<use xlink:href="#stairs_1_"  width="19" height="15.34" x="-9.5" y="-7.67" transform="matrix(0.8041 0 0 -0.8041 880.7129 210.9058)" overflow="visible"/>
	
		<use xlink:href="#toilets_1_"  width="13.01" height="12" x="-6.51" y="-6" transform="matrix(1 0 0 -1 667.3496 219.7446)" overflow="visible"/>
	
		<use xlink:href="#elevator"  width="12" height="19.92" x="-6" y="-9.96" transform="matrix(0.8221 0 0 -0.8221 633.2129 219.7446)" overflow="visible"/>
	
		<use xlink:href="#elevator"  width="12" height="19.92" x="-6" y="-9.96" transform="matrix(0.8221 0 0 -0.8221 243.1719 219.7446)" overflow="visible"/>
	
		<use xlink:href="#toilets_1_"  width="13.01" height="12" x="-6.51" y="-6" transform="matrix(1 0 0 -1 207.6538 219.7446)" overflow="visible"/>
</g>
</svg>
