<rect x="253" y="178" fill="#00FFFF" width="15" height="26"/>
    <rect x="426" y="178" fill="#00FFFF" width="15" height="26"/>
    <rect x="598" y="178" fill="#00FFFF" width="14" height="27"/>
    <rect x="773" y="178" fill="#00FFFF" width="19" height="26"/>