<symbol  id="elevator" viewBox="-6 -9.96 12 19.92">
    <g transform="scale(0.24,0.24)">
        <path fill="#93278F" d="M-25,8.5v-50h50v50H-25z M16.67-33.17h-33.33V0.16h33.33V-33.17z"/>
        <path id="path3265_2_" fill="#93278F" d="M7.78,37.89c-0.04,4.79,6.24,4.85,6.28,0l-0.11-14.57l3.39,4.6
            c2.32,2.81,6.42-1.13,3.87-4.32l-8.17-10.79c-1.28-1.43-2.97-1.42-4.24,0L0.62,23.63c-2.51,3.19,1.62,7.18,3.9,4.32l3.36-4.64
            L7.78,37.89"/>
        <path id="path3267_2_" fill="#93278F" d="M-15,15.32c-0.04-4.79,6.23-4.84,6.27,0l-0.11,14.57l3.39-4.56
            c2.32-2.85,6.42,1.1,3.91,4.28l-8.21,10.78c-1.29,1.44-2.96,1.43-4.23,0l-8.18-10.82c-2.51-3.18,1.62-7.17,3.91-4.27l3.36,4.6
            L-15,15.32"/>
        <path id="path3269_2_" fill="#93278F" d="M14.42-18.16c0-0.75-0.53-1.25-1.13-1.25c0,0-7.32,0-7.34,0c-0.57,0-1.11,0.51-1.1,1.25
            v8.8c-0.02,1.02,0.72,1.71,1.53,1.7c-0.02,0.02,6.5,0,6.5,0c0.87,0.02,1.53-0.75,1.53-1.7V-18.16"/>
        <path id="path3271_2_" fill="#93278F" d="M12.63-19.09H9.82v-11.95c0.01-2.11,2.8-2.11,2.81,0V-19.09"/>
        <path id="path3273_2_" fill="#93278F" d="M9.42-19.09H6.61v-11.95c0-2.09,2.8-2.09,2.81,0V-19.09"/>
        <path id="path3275_2_" fill="#93278F" d="M9.67-6.93c1.14,0.01,2.08,1.05,2.08,2.34c0,1.27-0.94,2.3-2.08,2.3
            c-1.17,0-2.11-1.03-2.11-2.3C7.56-5.89,8.5-6.93,9.67-6.93"/>
        <path id="path3277_2_" fill="#93278F" d="M4.38-18.16c0-0.75-0.53-1.25-1.14-1.25c0,0-7.31,0-7.33,0c-0.57,0-1.11,0.51-1.09,1.25
            v8.8c-0.01,1.02,0.72,1.71,1.53,1.7c-0.02,0.02,6.49,0,6.49,0c0.87,0.02,1.53-0.75,1.54-1.7V-18.16"/>
        <path id="path3279_2_" fill="#93278F" d="M2.6-19.09h-2.81v-11.95c0.01-2.11,2.8-2.11,2.81,0V-19.09"/>
        <path id="path3281_2_" fill="#93278F" d="M-0.62-19.09h-2.81v-11.95c0-2.09,2.8-2.09,2.81,0V-19.09"/>
        <path id="path3283_2_" fill="#93278F" d="M-0.36-6.93c1.14,0.01,2.08,1.05,2.08,2.34c0,1.27-0.94,2.3-2.08,2.3
            c-1.18,0-2.11-1.03-2.12-2.3C-2.47-5.89-1.54-6.93-0.36-6.93"/>
        <path id="path3285_2_" fill="#93278F" d="M-5.66-18.16c0-0.75-0.53-1.25-1.13-1.25c0,0-7.32,0-7.33,0c-0.57,0-1.12,0.51-1.1,1.25
            v8.8c-0.02,1.02,0.72,1.71,1.54,1.7c-0.02,0.02,6.5,0,6.5,0c0.87,0.02,1.53-0.75,1.53-1.7V-18.16"/>
        <path id="path3287_2_" fill="#93278F" d="M-7.44-19.09h-2.81v-11.95c0.01-2.11,2.81-2.11,2.81,0V-19.09"/>
        <path id="path3289_2_" fill="#93278F" d="M-10.66-19.09h-2.81v-11.95c0-2.09,2.8-2.09,2.81,0V-19.09"/>
        <path id="path3291_2_" fill="#93278F" d="M-10.4-6.93c1.14,0.01,2.08,1.05,2.08,2.34c0,1.27-0.95,2.3-2.08,2.3
            c-1.18,0-2.12-1.03-2.12-2.3C-12.52-5.89-11.58-6.93-10.4-6.93"/>
    </g>
</symbol>
<symbol  id="stairs_1_" viewBox="-9.5 -7.67 19 15.34">
    <path fill="#2E3192" d="M-9.5-5.94h3.46v3.42h3.44v3.45h3.49v3.38h3.47v3.36H9.5V5.96H6.08V2.58H2.61v-3.42h-3.46v-3.4h-3.48v-3.43
        H-9.5V-5.94z"/>
</symbol>
<symbol  id="toilets_1_" viewBox="-6.51 -6 13.01 12">
    <g>
        <g id="g1581_1_">
            <path id="path1583_1_" fill="#93278F" d="M0.87,5.89V-5.93h-1.11V5.89H0.87z"/>
            <path id="path1585_1_" fill="#93278F" d="M0.31-0.02"/>
        </g>
        <g id="g1587_1_">
            <g id="g1589_1_">
                <path id="path1591_1_" fill="#93278F" d="M-3.75,4.05c0.54,0,0.97,0.44,0.97,0.97C-2.78,5.56-3.21,6-3.75,6
                    c-0.54,0-0.98-0.44-0.98-0.97C-4.73,4.49-4.29,4.05-3.75,4.05z"/>
                <path id="path1593_1_" fill="#93278F" d="M-3.75,5.03"/>
            </g>
            <path id="path1595_1_" fill="#93278F" d="M-3.89-2.13v-3.41c0-0.61-0.92-0.61-0.92,0l0,3.41h-1.22l1.3,4.52h-0.2L-5.7-0.19
                c-0.18-0.56-0.96-0.33-0.78,0.27l0.85,2.81c0.09,0.32,0.5,0.89,1.2,0.89h0.65l0,0h0.7c0.69,0,1.1-0.57,1.21-0.89l0.85-2.8
                c0.17-0.6-0.6-0.85-0.78-0.27l-0.77,2.57H-2.8l1.32-4.52h-1.22v-3.42c0-0.61-0.92-0.61-0.92,0v3.42H-3.89z"/>
        </g>
        <g id="g1597_1_">
            <path id="path1599_1_" fill="#93278F" d="M3.21,3.78c-0.69,0-1.24-0.57-1.24-1.28v-3.02c0-0.59,0.85-0.59,0.85,0v2.76h0.2V-5.4
                c0-0.78,1.13-0.76,1.13,0v4.47h0.19V-5.4c0-0.76,1.13-0.78,1.13,0v7.64h0.2v-2.76c0-0.59,0.84-0.59,0.84,0v3
                c0,0.65-0.5,1.29-1.25,1.29L3.21,3.78z"/>
            <g id="g1601_1_">
                <path id="path1603_1_" fill="#93278F" d="M4.24,4.05c0.54,0,0.97,0.44,0.97,0.97C5.21,5.56,4.77,6,4.24,6S3.26,5.56,3.26,5.03
                    C3.26,4.49,3.7,4.05,4.24,4.05z"/>
                <path id="path1605_1_" fill="#93278F" d="M4.24,5.03"/>
            </g>
        </g>
    </g>
</symbol>

<use xlink:href="#elevator"  width="12" height="19.92" x="-6" y="-9.96" transform="matrix(1 0 0 -1 260.5 191)" overflow="visible"/>

        <use xlink:href="#elevator"  width="12" height="19.92" x="-6" y="-9.96" transform="matrix(1 0 0 -1 433.5 191.5)" overflow="visible"/>

        <use xlink:href="#elevator"  width="12" height="19.92" x="-6" y="-9.96" transform="matrix(1 0 0 -1 605 191)" overflow="visible"/>

        <use xlink:href="#elevator"  width="12" height="19.92" x="-6" y="-9.96" transform="matrix(1 0 0 -1 782.5 191)" overflow="visible"/>

        <use xlink:href="#stairs_1_"  width="19" height="15.34" x="-9.5" y="-7.67" transform="matrix(0.8112 0 0 -0.8112 263.4766 228.4995)" overflow="visible"/>

        <use xlink:href="#stairs_1_"  width="19" height="15.34" x="-9.5" y="-7.67" transform="matrix(0.8112 0 0 -0.8112 435.7607 228.2227)" overflow="visible"/>

        <use xlink:href="#stairs_1_"  width="19" height="15.34" x="-9.5" y="-7.67" transform="matrix(0.8112 0 0 -0.8112 608.0313 228.2227)" overflow="visible"/>

        <use xlink:href="#stairs_1_"  width="19" height="15.34" x="-9.5" y="-7.67" transform="matrix(0.8112 0 0 -0.8112 783.666 228.2227)" overflow="visible"/>

        <use xlink:href="#toilets_1_"  width="13.01" height="12" x="-6.51" y="-6" transform="matrix(1 0 0 -1 290.6309 228)" overflow="visible"/>

        <use xlink:href="#toilets_1_"  width="13.01" height="12" x="-6.51" y="-6" transform="matrix(1 0 0 -1 465 228.5)" overflow="visible"/>

        <use xlink:href="#toilets_1_"  width="13.01" height="12" x="-6.51" y="-6" transform="matrix(1 0 0 -1 813 228.2227)" overflow="visible"/>

        <use xlink:href="#stairs_1_"  width="19" height="15.34" x="-9.5" y="-7.67" transform="matrix(0.6651 0 0 -0.6651 902.25 118.7017)" overflow="visible"/>

        <use xlink:href="#toilets_1_"  width="13.01" height="12" x="-6.51" y="-6" transform="matrix(1 0 0 -1 634 228.2437)" overflow="visible"/>