<rect id="r1-7-701" x="185" y="105" fill="#FF0000" width="28" height="43"/>
    <rect id="r1-7-702" x="213" y="105" fill="#FF0000" width="42" height="43"/>
    <rect id="r1-7-703" x="255" y="105" fill="#FF0000" width="43" height="43"/>
    <rect id="r1-7-704" x="298" y="105" fill="#FF0000" width="34" height="43"/>
    <rect id="r1-7-705" x="332" y="105" fill="#FF0000" width="52" height="43"/>
    <rect id="r1-7-706" x="384" y="105" fill="#FF0000" width="16" height="43"/>
    <rect id="r1-7-707" x="400" y="105" fill="#FF0000" width="20" height="43"/>
    <rect id="r1-7-709" x="420" y="105" fill="#FF0000" width="51" height="43"/>
    <rect id="r1-7-710" x="471" y="105" fill="#FF0000" width="19" height="43"/>
    <rect id="r1-7-711" x="490" y="105" fill="#FF0000" width="17" height="43"/>
    <rect id="r1-7-749" x="507" y="105" fill="#FF0000" width="51" height="43"/>
    <rect id="r1-7-750" x="558" y="105" fill="#FF0000" width="17" height="43"/>
    <rect id="r1-7-751" x="575" y="105" fill="#FF0000" width="36" height="43"/>
    <rect id="r1-7-752" x="611" y="105" fill="#FF0000" width="36" height="43"/>
    <rect id="r1-7-753" x="647" y="105" fill="#FF0000" width="16" height="43"/>
    <rect id="r1-7-754" x="663" y="105" fill="#FF0000" width="19" height="43"/>
    <rect id="r1-7-755" x="682" y="105" fill="#FF0000" width="36" height="43"/>
    <rect id="r1-7-756" x="718" y="105" fill="#FF0000" width="33" height="43"/>
    <rect id="r1-7-757" x="751" y="105" fill="#FF0000" width="18" height="43"/>
    <rect id="r1-7-759" x="769" y="105" fill="#FF0000" width="16" height="27"/>
    <rect id="r1-7-758" x="769" y="132" fill="#FF0000" width="16" height="16"/>
    <rect id="r1-7-760" x="785" y="105" fill="#FF0000" width="35" height="43"/>
    <rect id="r1-7-761" x="820" y="105" fill="#FF0000" width="17" height="43"/>
    <rect id="r1-7-767" x="837" y="105" fill="#FF0000" width="26" height="43"/>
    <rect id="r1-7-797" x="837" y="168" fill="#FF0000" width="25" height="43"/>
    <rect id="r1-7-796" x="818" y="168" fill="#FF0000" width="19" height="43"/>
    <rect id="r1-7-789" x="761" y="256" fill="#FF0000" width="46" height="27"/>
    <rect id="r1-7-784" x="717" y="168" fill="#FF0000" width="33" height="44"/>
    <rect id="r1-7-783" x="699" y="168" fill="#FF0000" width="18" height="44"/>
    <rect id="r1-7-782" x="682" y="168" fill="#FF0000" width="17" height="44"/>
    <rect id="r1-7-781" x="663" y="168" fill="#FF0000" width="19" height="44"/>
    <rect id="r1-7-780" x="646" y="168" fill="#FF0000" width="17" height="44"/>
    <rect id="r1-7-771" x="582" y="256" fill="#FF0000" width="50" height="28"/>
    <rect id="r1-7-766" x="556" y="168" fill="#FF0000" width="16" height="44"/>
    <rect id="r1-7-765" x="539" y="168" fill="#FF0000" width="17" height="44"/>
    <rect id="r1-7-764" x="524" y="168" fill="#FF0000" width="15" height="44"/>
    <rect id="r1-7-763" x="504" y="168" fill="#FF0000" width="20" height="44"/>
    <rect id="r1-7-747" x="489" y="168" fill="#FF0000" width="15" height="44"/>
    <rect id="r1-7-746" x="475" y="168" fill="#FF0000" width="14" height="44"/>
    <rect id="r1-7-737" x="412" y="256" fill="#FF0000" width="48" height="27"/>
    <rect id="r1-7-732" x="366" y="168" fill="#FF0000" width="34" height="44"/>
    <rect id="r1-7-731" x="347" y="168" fill="#FF0000" width="19" height="44"/>
    <rect id="r1-7-730" x="331" y="168" fill="#FF0000" width="16" height="44"/>
    <rect id="r1-7-729" x="313" y="168" fill="#FF0000" width="18" height="44"/>
    <rect id="r1-7-728" x="300" y="168" fill="#FF0000" width="13" height="44"/>
    <rect id="r1-7-719" x="238" y="258" fill="#FF0000" width="48" height="25"/>
    <rect id="r1-7-714" x="228" y="168" fill="#FF0000" width="12" height="44"/>
    <rect id="r1-7-713" x="211" y="168" fill="#FF0000" width="17" height="44"/>
    <rect id="r1-7-712" x="185" y="168" fill="#FF0000" width="26" height="44"/>

    <rect id="r1-7-717" x="226" y="212" fill="#F7931E" width="18" height="32"/>
    <rect id="r1-7-718" x="226" y="244" fill="#F7931E" width="18" height="14"/>
    <rect id="r1-7-726" x="282" y="200" fill="#F7931E" width="18" height="9"/>
    <rect id="r1-7-727" x="282" y="168" fill="#F7931E" width="18" height="32"/>
    <rect id="r1-7-734" x="398" y="212" fill="#F7931E" width="18" height="32"/>
    <rect id="r1-7-736" x="398" y="244" fill="#F7931E" width="18" height="12"/>
    <rect id="r1-7-770" x="570" y="244" fill="#F7931E" width="18" height="12"/>
    <rect id="r1-7-768" x="570" y="212" fill="#F7931E" width="18" height="32"/>
    <rect id="r1-7-788" x="748" y="244" fill="#F7931E" width="16" height="12"/>
    <rect id="r1-7-786" x="748" y="212" fill="#F7931E" width="16" height="32"/>
    <rect id="r1-7-744" x="459" y="200" fill="#F7931E" width="16" height="9"/>
    <rect id="r1-7-745" x="459" y="168" fill="#F7931E" width="16" height="32"/>
    <rect id="r1-7-778" x="630" y="200" fill="#F7931E" width="16" height="9"/>
    <rect id="r1-7-779" x="630" y="168" fill="#F7931E" width="16" height="32"/>
    <rect id="r1-7-794" x="805" y="202" fill="#F7931E" width="13" height="9"/>
    <rect id="r1-7-795" x="805" y="168" fill="#F7931E" width="13" height="34"/>