<rect x="264" y="141" width="5" height="44"/>
    <rect x="249" y="178" width="15" height="7"/>
    <rect x="249" y="141" width="15" height="11"/>
    <rect x="424" y="141" width="15" height="12"/>
    <rect x="439" y="141" width="5" height="44"/>
    <rect x="424" y="179" width="15" height="6"/>
    <rect x="590" y="141" width="14" height="13"/>
    <rect x="604" y="141" width="6" height="44"/>
    <rect x="590" y="181" width="14" height="4"/>
    <rect x="767" y="141" width="19" height="13"/>
    <rect x="786" y="141" width="2" height="44"/>
    <rect x="767" y="180" width="19" height="5"/>

