<rect x="249" y="152" fill="#00FFFF" width="15" height="26"/>
    <rect x="424" y="153" fill="#00FFFF" width="15" height="26"/>
    <rect x="590" y="154" fill="#00FFFF" width="14" height="27"/>
    <rect x="767" y="154" fill="#00FFFF" width="19" height="26"/>