<rect id="r2-1-131" x="5" y="200" fill="#FF0000" width="100" height="47"/>
<rect id="r2-1-129" x="105" y="200" fill="#FF0000" width="32" height="28"/>
<rect id="r2-1-127" x="137" y="200" fill="#FF0000" width="16" height="28"/>
<rect id="r2-1-125" x="153" y="200" fill="#FF0000" width="16" height="28"/>
<rect id="r2-1-175" x="263" y="180" fill="#FF0000" width="16" height="48"/>
<rect id="r2-1-173" x="279" y="180" fill="#FF0000" width="15" height="48"/>
<rect id="r2-1-169" x="294" y="180" fill="#FF0000" width="17" height="33"/>
<rect id="r2-1-167" x="311" y="180" fill="#FF0000" width="15" height="48"/>
<rect id="r2-1-165" x="326" y="180" fill="#FF0000" width="45" height="48"/>
<rect id="r2-1-163" x="371" y="180" fill="#FF0000" width="32" height="48"/>
<rect id="r2-1-166" x="403" y="180" fill="#FF0000" width="32" height="48"/>
<rect id="r2-1-168" x="435" y="180" fill="#FF0000" width="48" height="48"/>
<rect id="r2-1-170" x="483" y="180" fill="#FF0000" width="16" height="48"/>
<rect id="r2-1-172" x="499" y="180" fill="#FF0000" width="16" height="31"/>
<rect id="r2-1-176" x="515" y="180" fill="#FF0000" width="16" height="48"/>
<rect id="r2-1-178" x="531" y="180" fill="#FF0000" width="17" height="48"/>
<rect id="r2-1-126" x="642" y="200" fill="#FF0000" width="34" height="28"/>
<rect id="r2-1-128" x="676" y="200" fill="#FF0000" width="15" height="28"/>
<rect id="r2-1-130" x="691" y="200" fill="#FF0000" width="32" height="28"/>
<rect id="r2-1-132" x="723" y="200" fill="#FF0000" width="17" height="28"/>
<rect id="r2-1-102" x="830" y="189" fill="#FF0000" width="15" height="39"/>
<rect id="r2-1-110" x="809" y="247" fill="#FF0000" width="36" height="39"/>
<rect id="r2-1-134" x="740" y="200" fill="#FF0000" width="69" height="28"/>
<rect id="r2-1-100" x="845" y="189" fill="#FF0000" width="77" height="97"/>
<rect id="r2-1-136" x="739" y="247" fill="#FF0000" width="70" height="49"/>
<rect id="r2-1-138" x="723" y="269" fill="#FF0000" width="16" height="27"/>
<rect id="r2-1-140" x="707" y="247" fill="#FF0000" width="16" height="49"/>
<rect id="r2-1-142" x="675" y="247" fill="#FF0000" width="32" height="49"/>
<rect id="r2-1-144" x="642" y="247" fill="#FF0000" width="33" height="49"/>
<rect id="r2-1-146" x="625" y="247" fill="#FF0000" width="17" height="49"/>
<rect id="r2-1-148" x="609" y="247" fill="#FF0000" width="16" height="49"/>
<rect id="r2-1-150" x="579" y="247" fill="#FF0000" width="30" height="49"/>
<rect id="r2-1-152" x="548" y="247" fill="#FF0000" width="31" height="49"/>
<rect id="r2-1-154" x="514" y="247" fill="#FF0000" width="34" height="49"/>
<rect id="r2-1-156" x="499" y="269" fill="#FF0000" width="15" height="27"/>
<rect id="r2-1-158" x="483" y="247" fill="#FF0000" width="16" height="49"/>
<rect id="r2-1-160" x="451" y="247" fill="#FF0000" width="32" height="49"/>
<rect id="r2-1-162" x="435" y="247" fill="#FF0000" width="16" height="49"/>
<rect id="r2-1-164" x="403" y="247" fill="#FF0000" width="32" height="49"/>
<rect id="r2-1-161" x="371" y="247" fill="#FF0000" width="32" height="49"/>
<rect id="r2-1-159" x="356" y="247" fill="#FF0000" width="15" height="49"/>
<rect id="r2-1-157" x="325" y="247" fill="#FF0000" width="31" height="49"/>
<rect id="r2-1-155" x="309" y="247" fill="#FF0000" width="16" height="49"/>
<rect id="r2-1-153" x="294" y="247" fill="#FF0000" width="15" height="49"/>
<rect id="r2-1-151" x="279" y="247" fill="#FF0000" width="15" height="49"/>
<rect id="r2-1-149" x="263" y="247" fill="#FF0000" width="16" height="49"/>
<rect id="r2-1-147" x="232" y="247" fill="#FF0000" width="31" height="49"/>
<rect id="r2-1-145" x="200" y="247" fill="#FF0000" width="32" height="49"/>
<rect id="r2-1-143" x="185" y="247" fill="#FF0000" width="15" height="49"/>
<rect id="r2-1-141" x="169" y="247" fill="#FF0000" width="16" height="49"/>
<rect id="r2-1-139" x="153" y="247" fill="#FF0000" width="16" height="49"/>
<rect id="r2-1-137" x="136" y="247" fill="#FF0000" width="17" height="49"/>
<rect id="r2-1-138a" x="121" y="247" fill="#FF0000" width="15" height="49"/>
<rect id="r2-1-135" x="105" y="247" fill="#FF0000" width="16" height="49"/>
<rect id="r2-1-133" x="5" y="247" fill="#FF0000" width="100" height="49"/>